TBB default threads is   4
OpenMP max threads is    4
Configured maxthreads is 4
Running 46 test cases...
$ hailstone numbers (few long):                                                 0.799  GigaIterations/s (0.313s)
$ hailstone numbers (many short):                                               0.511  GigaIterations/s (0.49 s)
$ tbb parallel_reduce hailstone numbers (few long) (x1 threads):                0.651  GigaIterations/s (0.384s)
$ tbb parallel_reduce hailstone numbers (many short) (x1 threads):              0.431  GigaIterations/s (0.581s)
$ tbb parallel_reduce hailstone numbers (few long) (x2 threads):                1.17   GigaIterations/s (0.213s)
$ tbb parallel_reduce hailstone numbers (many short) (x2 threads):              0.871  GigaIterations/s (0.287s)
$ tbb parallel_reduce hailstone numbers (few long) (x3 threads):                1.86   GigaIterations/s (0.135s)
$ tbb parallel_reduce hailstone numbers (many short) (x3 threads):              1.34   GigaIterations/s (0.187s)
$ tbb parallel_reduce hailstone numbers (few long) (x4 threads):                2.33   GigaIterations/s (0.107s)
$ tbb parallel_reduce hailstone numbers (many short) (x4 threads):              1.79   GigaIterations/s (0.14 s)
$ omp parallel_reduce hailstone numbers (few long) (x1 threads):                0.967  GigaIterations/s (0.258s)
$ omp parallel_reduce hailstone numbers (many short) (x1 threads):              0.446  GigaIterations/s (0.56 s)
$ omp parallel_reduce hailstone numbers (few long) (x2 threads):                1.46   GigaIterations/s (0.171s)
$ omp parallel_reduce hailstone numbers (many short) (x2 threads):              1      GigaIterations/s (0.25 s)
$ omp parallel_reduce hailstone numbers (few long) (x3 threads):                2.63   GigaIterations/s (0.0951s)
$ omp parallel_reduce hailstone numbers (many short) (x3 threads):              1.55   GigaIterations/s (0.161s)
$ omp parallel_reduce hailstone numbers (few long) (x4 threads):                3.38   GigaIterations/s (0.0739s)
$ omp parallel_reduce hailstone numbers (many short) (x4 threads):              2.02   GigaIterations/s (0.123s)
$ tbb threads rampup:                                                           7.53   K-terminate&reinit calls/s (1.3  s)
$ tbb threads rampdown:                                                         5.06   K-terminate&reinit calls/s (1.93 s)
$ tbb threads flipflop:                                                         5.08   K-terminate&reinit calls/s (1.92 s)
$ tbb threads flipflop lo:                                                      5.38   K-terminate&reinit calls/s (1.81 s)
$ tbb threads flipflop hi:                                                      5.5    K-terminate&reinit calls/s (1.78 s)
$ omp threads rampup:                                                           59.3   Mega-calls/s (0.27 s)
$ omp threads rampdown:                                                         59.8   Mega-calls/s (0.268s)
$ omp threads flipflop:                                                         112    Mega-calls/s (0.142s)
$ omp threads flipflop lo:                                                      157    Mega-calls/s (0.102s)
$ omp threads flipflop hi:                                                      110    Mega-calls/s (0.146s)
$ tbb threads used slow flipflop:                                               2.25   K-iterations/s (0.434s)
$ tbb threads used fast flipflop:                                               1.59   K-iterations/s (0.616s)
$ omp threads used slow flipflop:                                               2.36   K-iterations/s (0.414s)
$ omp threads used fast flipflop:                                               2.08   K-iterations/s (0.469s)
$ omp threads used fast flipflop pragma:                                        2.02   K-iterations/s (0.482s)
$ tbb then omp:                                                                 5.71   Long jobs/s (0.35 s)
$ omp then tbb:                                                                 5.37   Long jobs/s (0.372s)
$ tbb and omp:                                                                  5.15   Long jobs/s (0.388s)
$ tbb and tbb:                                                                  5.78   Long jobs/s (0.346s)
$ omp and omp:                                                                  4.84   Long jobs/s (0.413s)
$ tbb then omp (short):                                                         385    Short jobs/s (0.332s)
$ omp then tbb (short):                                                         346    Short jobs/s (0.37 s)
$ omp interleaved tbb (short):                                                  308    Short jobs/s (0.416s)
$ tbb then omp (very short):                                                    20.3   Kilo very short jobs/s (0.395s)
$ omp then tbb (vert short):                                                    19.6   Kilo very short jobs/s (0.408s)
$ omp interleaved tbb (very short):                                             17     Kilo very short jobs/s (0.471s)
$ memset:                                                                       3.67   GByte/s (0.544s)
$ memsum:                                                                       12.2   GByte/s (0.164s)
$ memcpy:                                                                       1.94   GByte/s (0.516s)
$ tbb parallel_for memset (x1 threads):                                         3.46   GByte/s (0.578s)
$ tbb parallel_for memset (x2 threads):                                         7.59   GByte/s (0.264s)
$ tbb parallel_for memset (x3 threads):                                         14.3   GByte/s (0.14 s)
$ tbb parallel_for memset (x4 threads):                                         19.3   GByte/s (0.104s)
$ tbb parallel_reduce memsum (x1 threads):                                      11.8   GByte/s (0.169s)
$ tbb parallel_reduce memsum (x2 threads):                                      19.5   GByte/s (0.103s)
$ tbb parallel_reduce memsum (x3 threads):                                      27.2   GByte/s (0.0736s)
$ tbb parallel_reduce memsum (x4 threads):                                      34.6   GByte/s (0.0579s)
$ tbb parallel_for memcpy (x1 threads):                                         2.46   GByte/s (0.407s)
$ tbb parallel_for memcpy (x2 threads):                                         5.35   GByte/s (0.187s)
$ tbb parallel_for memcpy (x3 threads):                                         8.59   GByte/s (0.116s)
$ tbb parallel_for memcpy (x4 threads):                                         11     GByte/s (0.0907s)
$ page strided write sequential:                                                37.5   MegaAccess/s (0.133s)
$ page strided read sequential:                                                 59.5   MegaAccess/s (0.0841s)
$ page strided write random:                                                    37.4   MegaAccess/s (0.134s)
$ page strided read random:                                                     42.2   MegaAccess/s (0.118s)
$ tbb parallel_for page strided write sequential (x1 threads):                  39.1   MegaAccess/s (0.128s)
$ tbb parallel_reduce page strided read sequential (x1 threads):                53.5   MegaAccess/s (0.0935s)
$ tbb parallel_for page strided write sequential (x2 threads):                  48.2   MegaAccess/s (0.104s)
$ tbb parallel_reduce page strided read sequential (x2 threads):                112    MegaAccess/s (0.0447s)
$ tbb parallel_for page strided write sequential (x3 threads):                  53.7   MegaAccess/s (0.0931s)
$ tbb parallel_reduce page strided read sequential (x3 threads):                122    MegaAccess/s (0.0409s)
$ tbb parallel_for page strided write sequential (x4 threads):                  54.4   MegaAccess/s (0.0918s)
$ tbb parallel_reduce page strided read sequential (x4 threads):                123    MegaAccess/s (0.0406s)
$ tbb parallel_for page strided write random (x1 threads):                      36.1   MegaAccess/s (0.139s)
$ tbb parallel_for page strided read random (x1 threads):                       42.9   MegaAccess/s (0.116s)
$ tbb parallel_for page strided write random (x2 threads):                      46.9   MegaAccess/s (0.107s)
$ tbb parallel_for page strided read random (x2 threads):                       86.1   MegaAccess/s (0.0581s)
$ tbb parallel_for page strided write random (x3 threads):                      52.2   MegaAccess/s (0.0957s)
$ tbb parallel_for page strided read random (x3 threads):                       111    MegaAccess/s (0.045s)
$ tbb parallel_for page strided write random (x4 threads):                      52.7   MegaAccess/s (0.0948s)
$ tbb parallel_for page strided read random (x4 threads):                       119    MegaAccess/s (0.0419s)
$ malloc 1:                                                                     24.5   MegaAllocations/s (0.652s)
$ free FIFO 1:                                                                  46.6   MegaDeallocations/s (0.343s)
$ malloc again 1:                                                               24.8   MegaAllocations/s (0.645s)
$ free LIFO 1:                                                                  38.5   MegaDeallocations/s (0.416s)
$ malloc 4k:                                                                    1.04   MegaAllocations/s (0.241s)
$ free FIFO 4k:                                                                 1.34   MegaDeallocations/s (0.187s)
$ malloc again 4k:                                                              1.09   MegaAllocations/s (0.23 s)
$ free LIFO 4k:                                                                 1.45   MegaDeallocations/s (0.172s)
$ std allocate 1:                                                               22.6   MegaAllocations/s (0.709s)
$ std deallocate FIFO 1:                                                        45.1   MegaDeallocations/s (0.355s)
$ std allocate again 1:                                                         20.9   MegaAllocations/s (0.765s)
$ std deallocate LIFO 1:                                                        39.5   MegaDeallocations/s (0.405s)
$ std allocate 4k:                                                              1.05   MegaAllocations/s (0.239s)
$ std deallocate FIFO 4k:                                                       1.46   MegaDeallocations/s (0.171s)
$ std allocate again 4k:                                                        1.16   MegaAllocations/s (0.216s)
$ std deallocate LIFO 4k:                                                       1.48   MegaDeallocations/s (0.169s)
$ tbb parallel_for std allocate 1 (x1 threads):                                 24.8   MegaAllocations/s (0.646s)
$ tbb parallel_for std deallocate 1 (x1 threads):                               46.6   MegaDeallocations/s (0.343s)
$ tbb parallel_for std allocate 1 (x2 threads):                                 43     MegaAllocations/s (0.372s)
$ tbb parallel_for std deallocate 1 (x2 threads):                               72.4   MegaDeallocations/s (0.221s)
$ tbb parallel_for std allocate 1 (x3 threads):                                 65.8   MegaAllocations/s (0.243s)
$ tbb parallel_for std deallocate 1 (x3 threads):                               38.9   MegaDeallocations/s (0.411s)
$ tbb parallel_for std allocate 1 (x4 threads):                                 86.1   MegaAllocations/s (0.186s)
$ tbb parallel_for std deallocate 1 (x4 threads):                               42.1   MegaDeallocations/s (0.38 s)
$ tbb parallel_for std allocate 4k (x1 threads):                                1.26   MegaAllocations/s (0.198s)
$ tbb parallel_for std deallocate 4k (x1 threads):                              1.78   MegaDeallocations/s (0.14 s)
$ tbb parallel_for std allocate 4k (x2 threads):                                1.14   MegaAllocations/s (0.219s)
$ tbb parallel_for std deallocate 4k (x2 threads):                              1.59   MegaDeallocations/s (0.157s)
$ tbb parallel_for std allocate 4k (x3 threads):                                0.919  MegaAllocations/s (0.272s)
$ tbb parallel_for std deallocate 4k (x3 threads):                              1.7    MegaDeallocations/s (0.147s)
$ tbb parallel_for std allocate 4k (x4 threads):                                0.901  MegaAllocations/s (0.277s)
$ tbb parallel_for std deallocate 4k (x4 threads):                              1.36   MegaDeallocations/s (0.184s)
$ tbb scalable pool allocate 1:                                                 55.6   MegaAllocations/s (0.288s)
$ tbb scalable pool deallocate 1:                                               60.2   MegaDeallocations/s (0.266s)
$ tbb scalable pool allocate 4k:                                                2.64   MegaAllocations/s (0.0948s)
$ tbb scalable pool deallocate 4k:                                              1      MegaDeallocations/s (0.25 s)
$ tbb parallel_for tbb scalable pool allocate 1 (x1 threads):                   64.1   MegaAllocations/s (0.25 s)
$ tbb parallel_for tbb scalable pool deallocate 1 (x1 threads):                 57.5   MegaDeallocations/s (0.278s)
$ tbb parallel_for tbb scalable pool allocate 1 (x2 threads):                   138    MegaAllocations/s (0.116s)
$ tbb parallel_for tbb scalable pool deallocate 1 (x2 threads):                 108    MegaDeallocations/s (0.148s)
$ tbb parallel_for tbb scalable pool allocate 1 (x3 threads):                   206    MegaAllocations/s (0.0778s)
$ tbb parallel_for tbb scalable pool deallocate 1 (x3 threads):                 150    MegaDeallocations/s (0.107s)
$ tbb parallel_for tbb scalable pool allocate 1 (x4 threads):                   261    MegaAllocations/s (0.0613s)
$ tbb parallel_for tbb scalable pool deallocate 1 (x4 threads):                 204    MegaDeallocations/s (0.0783s)
$ tbb parallel_for tbb scalable pool allocate 4k (x1 threads):                  2.67   MegaAllocations/s (0.0935s)
$ tbb parallel_for tbb scalable pool deallocate 4k (x1 threads):                1.02   MegaDeallocations/s (0.245s)
$ tbb parallel_for tbb scalable pool allocate 4k (x2 threads):                  2.25   MegaAllocations/s (0.111s)
$ tbb parallel_for tbb scalable pool deallocate 4k (x2 threads):                0.85   MegaDeallocations/s (0.294s)
$ tbb parallel_for tbb scalable pool allocate 4k (x3 threads):                  2.01   MegaAllocations/s (0.124s)
$ tbb parallel_for tbb scalable pool deallocate 4k (x3 threads):                1.09   MegaDeallocations/s (0.23 s)
$ tbb parallel_for tbb scalable pool allocate 4k (x4 threads):                  2.05   MegaAllocations/s (0.122s)
$ tbb parallel_for tbb scalable pool deallocate 4k (x4 threads):                1.12   MegaDeallocations/s (0.222s)
$ tbb scalable allocate 1:                                                      74.3   MegaAllocations/s (0.215s)
$ tbb scalable deallocate 1:                                                    57.1   MegaDeallocations/s (0.28 s)
$ tbb scalable allocate 4k:                                                     2.37   MegaAllocations/s (0.106s)
$ tbb scalable deallocate 4k:                                                   0.928  MegaDeallocations/s (0.269s)
$ tbb parallel_for tbb scalable allocate 1 (x1 threads):                        64.1   MegaAllocations/s (0.25 s)
$ tbb parallel_for tbb scalable deallocate 1 (x1 threads):                      55.4   MegaDeallocations/s (0.289s)
$ tbb parallel_for tbb scalable allocate 1 (x2 threads):                        135    MegaAllocations/s (0.118s)
$ tbb parallel_for tbb scalable deallocate 1 (x2 threads):                      110    MegaDeallocations/s (0.145s)
$ tbb parallel_for tbb scalable allocate 1 (x3 threads):                        199    MegaAllocations/s (0.0805s)
$ tbb parallel_for tbb scalable deallocate 1 (x3 threads):                      156    MegaDeallocations/s (0.102s)
$ tbb parallel_for tbb scalable allocate 1 (x4 threads):                        274    MegaAllocations/s (0.0585s)
$ tbb parallel_for tbb scalable deallocate 1 (x4 threads):                      229    MegaDeallocations/s (0.0697s)
$ tbb parallel_for tbb scalable allocate 4k (x1 threads):                       2.44   MegaAllocations/s (0.102s)
$ tbb parallel_for tbb scalable deallocate 4k (x1 threads):                     0.917  MegaDeallocations/s (0.273s)
$ tbb parallel_for tbb scalable allocate 4k (x2 threads):                       1.92   MegaAllocations/s (0.13 s)
$ tbb parallel_for tbb scalable deallocate 4k (x2 threads):                     0.828  MegaDeallocations/s (0.302s)
$ tbb parallel_for tbb scalable allocate 4k (x3 threads):                       2.17   MegaAllocations/s (0.115s)
$ tbb parallel_for tbb scalable deallocate 4k (x3 threads):                     1.05   MegaDeallocations/s (0.237s)
$ tbb parallel_for tbb scalable allocate 4k (x4 threads):                       2.33   MegaAllocations/s (0.107s)
$ tbb parallel_for tbb scalable deallocate 4k (x4 threads):                     1.59   MegaDeallocations/s (0.157s)
$ map 4k pages (late commit):                                                   1.97   MegaMaps/s (0.254s)
$ touch pages (late commit):                                                    0.351  MegaTouches/s (1.42 s)
$ touch pages again (late commit):                                              12     MegaTouches/s (0.0415s)
$ unmap pages (late commit):                                                    12.1   MegaUnmaps/s (0.0414s)
$ map 4k pages (early commit):                                                  2.01   MegaMaps/s (0.249s)
$ touch pages (early commit):                                                   1.31   MegaTouches/s (0.382s)
$ touch pages again (early commit):                                             15.7   MegaTouches/s (0.0319s)
$ unmap pages (early commit):                                                   12     MegaUnmaps/s (0.0416s)
