TBB default threads is   16
OpenMP max threads is    16
Configured maxthreads is 4
Running 47 test cases...
$ hailstone numbers (few long):                                                 1.3    GigaIterations/s (0.192s)
$ hailstone numbers (many short):                                               0.595  GigaIterations/s (0.42 s)
$ tbb parallel_reduce hailstone numbers (few long) (x1 threads):                1.34   GigaIterations/s (0.186s)
$ tbb parallel_reduce hailstone numbers (many short) (x1 threads):              0.611  GigaIterations/s (0.409s)
$ tbb parallel_reduce hailstone numbers (few long) (x2 threads):                2.74   GigaIterations/s (0.0913s)
$ tbb parallel_reduce hailstone numbers (many short) (x2 threads):              1.22   GigaIterations/s (0.205s)
$ tbb parallel_reduce hailstone numbers (few long) (x3 threads):                4.01   GigaIterations/s (0.0624s)
$ tbb parallel_reduce hailstone numbers (many short) (x3 threads):              1.8    GigaIterations/s (0.139s)
$ tbb parallel_reduce hailstone numbers (few long) (x4 threads):                5.35   GigaIterations/s (0.0467s)
$ tbb parallel_reduce hailstone numbers (many short) (x4 threads):              2.4    GigaIterations/s (0.104s)
$ omp parallel_reduce hailstone numbers (few long) (x1 threads):                1.37   GigaIterations/s (0.182s)
$ omp parallel_reduce hailstone numbers (many short) (x1 threads):              0.614  GigaIterations/s (0.407s)
$ omp parallel_reduce hailstone numbers (few long) (x2 threads):                2.74   GigaIterations/s (0.0914s)
$ omp parallel_reduce hailstone numbers (many short) (x2 threads):              1.19   GigaIterations/s (0.211s)
$ omp parallel_reduce hailstone numbers (few long) (x3 threads):                4.01   GigaIterations/s (0.0624s)
$ omp parallel_reduce hailstone numbers (many short) (x3 threads):              1.74   GigaIterations/s (0.144s)
$ omp parallel_reduce hailstone numbers (few long) (x4 threads):                3.61   GigaIterations/s (0.0692s)
$ omp parallel_reduce hailstone numbers (many short) (x4 threads):              2.25   GigaIterations/s (0.111s)
$ tbb threads rampup:                                                           5.49   K-terminate&reinit calls/s (1.78 s)
$ tbb threads rampdown:                                                         5.07   K-terminate&reinit calls/s (1.93 s)
$ tbb threads flipflop:                                                         4.81   K-terminate&reinit calls/s (2.03 s)
$ tbb threads flipflop lo:                                                      5.19   K-terminate&reinit calls/s (1.88 s)
$ tbb threads flipflop hi:                                                      5      K-terminate&reinit calls/s (1.95 s)
$ omp threads rampup:                                                           62.4   Mega-calls/s (0.257s)
$ omp threads rampdown:                                                         59.9   Mega-calls/s (0.267s)
$ omp threads flipflop:                                                         146    Mega-calls/s (0.11 s)
$ omp threads flipflop lo:                                                      168    Mega-calls/s (0.0953s)
$ omp threads flipflop hi:                                                      161    Mega-calls/s (0.0995s)
$ tbb threads used slow flipflop:                                               2.73   K-iterations/s (0.357s)
$ tbb threads used fast flipflop:                                               1.53   K-iterations/s (0.638s)
$ omp threads used slow flipflop:                                               2.59   K-iterations/s (0.378s)
$ omp threads used fast flipflop:                                               1.84   K-iterations/s (0.53 s)
$ omp threads used fast flipflop pragma:                                        1.86   K-iterations/s (0.525s)
$ tbb then omp:                                                                 5.88   Long jobs/s (0.34 s)
$ omp then tbb:                                                                 5.83   Long jobs/s (0.343s)
$ tbb and omp:                                                                  9      Long jobs/s (0.222s)
$ tbb and tbb:                                                                  5.93   Long jobs/s (0.337s)
$ omp and omp:                                                                  10.7   Long jobs/s (0.186s)
$ tbb then omp (short):                                                         388    Short jobs/s (0.33 s)
$ omp then tbb (short):                                                         361    Short jobs/s (0.354s)
$ omp interleaved tbb (short):                                                  376    Short jobs/s (0.34 s)
$ tbb then omp (very short):                                                    21.2   Kilo very short jobs/s (0.378s)
$ omp then tbb (very short):                                                    20.1   Kilo very short jobs/s (0.398s)
$ omp interleaved tbb (very short):                                             20     Kilo very short jobs/s (0.4  s)
$ memset:                                                                       5.35   GByte/s (0.748s)
$ memsum:                                                                       12.6   GByte/s (0.318s)
$ memcpy:                                                                       3.56   GByte/s (0.561s)
$ tbb parallel_for memset (x1 threads):                                         5.83   GByte/s (0.686s)
$ tbb parallel_for memset (x2 threads):                                         11.4   GByte/s (0.35 s)
$ tbb parallel_for memset (x3 threads):                                         16.7   GByte/s (0.24 s)
$ tbb parallel_for memset (x4 threads):                                         19.6   GByte/s (0.205s)
$ tbb parallel_reduce memsum (x1 threads):                                      12.3   GByte/s (0.324s)
$ tbb parallel_reduce memsum (x2 threads):                                      23.5   GByte/s (0.17 s)
$ tbb parallel_reduce memsum (x3 threads):                                      29.3   GByte/s (0.137s)
$ tbb parallel_reduce memsum (x4 threads):                                      31.3   GByte/s (0.128s)
$ tbb parallel_for memcpy (x1 threads):                                         3.35   GByte/s (0.596s)
$ tbb parallel_for memcpy (x2 threads):                                         6.84   GByte/s (0.292s)
$ tbb parallel_for memcpy (x3 threads):                                         9.92   GByte/s (0.202s)
$ tbb parallel_for memcpy (x4 threads):                                         11.3   GByte/s (0.177s)
$ page strided write sequential:                                                40     MegaAccess/s (0.25 s)
$ page strided read sequential:                                                 56.1   MegaAccess/s (0.178s)
$ page strided write random:                                                    31.3   MegaAccess/s (0.319s)
$ page strided read random:                                                     33.6   MegaAccess/s (0.298s)
$ tbb parallel_for page strided write sequential (x1 threads):                  39.8   MegaAccess/s (0.251s)
$ tbb parallel_reduce page strided read sequential (x1 threads):                47.2   MegaAccess/s (0.212s)
$ tbb parallel_for page strided write sequential (x2 threads):                  45.6   MegaAccess/s (0.22 s)
$ tbb parallel_reduce page strided read sequential (x2 threads):                84.6   MegaAccess/s (0.118s)
$ tbb parallel_for page strided write sequential (x3 threads):                  48.1   MegaAccess/s (0.208s)
$ tbb parallel_reduce page strided read sequential (x3 threads):                106    MegaAccess/s (0.0942s)
$ tbb parallel_for page strided write sequential (x4 threads):                  48.5   MegaAccess/s (0.206s)
$ tbb parallel_reduce page strided read sequential (x4 threads):                108    MegaAccess/s (0.0927s)
$ tbb parallel_for page strided write random (x1 threads):                      27.9   MegaAccess/s (0.359s)
$ tbb parallel_for page strided read random (x1 threads):                       27.9   MegaAccess/s (0.359s)
$ tbb parallel_for page strided write random (x2 threads):                      43.6   MegaAccess/s (0.229s)
$ tbb parallel_for page strided read random (x2 threads):                       58.7   MegaAccess/s (0.17 s)
$ tbb parallel_for page strided write random (x3 threads):                      47.1   MegaAccess/s (0.212s)
$ tbb parallel_for page strided read random (x3 threads):                       72.1   MegaAccess/s (0.139s)
$ tbb parallel_for page strided write random (x4 threads):                      48.7   MegaAccess/s (0.205s)
$ tbb parallel_for page strided read random (x4 threads):                       92.3   MegaAccess/s (0.108s)
$ malloc 1:                                                                     26.7   MegaAllocations/s (1.2  s)
$ free FIFO 1:                                                                  49.5   MegaDeallocations/s (0.646s)
$ malloc again 1:                                                               27.3   MegaAllocations/s (1.17 s)
$ free LIFO 1:                                                                  31.8   MegaDeallocations/s (1    s)
$ malloc 4k:                                                                    1.18   MegaAllocations/s (0.424s)
$ free FIFO 4k:                                                                 0.974  MegaDeallocations/s (0.514s)
$ malloc again 4k:                                                              0.919  MegaAllocations/s (0.544s)
$ free LIFO 4k:                                                                 0.898  MegaDeallocations/s (0.557s)
$ std allocate 1:                                                               25.7   MegaAllocations/s (1.25 s)
$ std deallocate FIFO 1:                                                        44.3   MegaDeallocations/s (0.722s)
$ std allocate again 1:                                                         23.2   MegaAllocations/s (1.38 s)
$ std deallocate LIFO 1:                                                        29.8   MegaDeallocations/s (1.07 s)
$ std allocate 4k:                                                              1.09   MegaAllocations/s (0.458s)
$ std deallocate FIFO 4k:                                                       0.859  MegaDeallocations/s (0.582s)
$ std allocate again 4k:                                                        1.15   MegaAllocations/s (0.434s)
$ std deallocate LIFO 4k:                                                       0.847  MegaDeallocations/s (0.59 s)
$ tbb parallel_for std allocate 1 (x1 threads):                                 26     MegaAllocations/s (1.23 s)
$ tbb parallel_for std deallocate 1 (x1 threads):                               47.9   MegaDeallocations/s (0.668s)
$ tbb parallel_for std allocate 1 (x2 threads):                                 44.8   MegaAllocations/s (0.715s)
$ tbb parallel_for std deallocate 1 (x2 threads):                               66.4   MegaDeallocations/s (0.482s)
$ tbb parallel_for std allocate 1 (x3 threads):                                 68     MegaAllocations/s (0.471s)
$ tbb parallel_for std deallocate 1 (x3 threads):                               15.3   MegaDeallocations/s (2.09 s)
$ tbb parallel_for std allocate 1 (x4 threads):                                 85.2   MegaAllocations/s (0.376s)
$ tbb parallel_for std deallocate 1 (x4 threads):                               18.7   MegaDeallocations/s (1.72 s)
$ tbb parallel_for std allocate 4k (x1 threads):                                1.15   MegaAllocations/s (0.435s)
$ tbb parallel_for std deallocate 4k (x1 threads):                              1.6    MegaDeallocations/s (0.313s)
$ tbb parallel_for std allocate 4k (x2 threads):                                1.45   MegaAllocations/s (0.344s)
$ tbb parallel_for std deallocate 4k (x2 threads):                              1.81   MegaDeallocations/s (0.277s)
$ tbb parallel_for std allocate 4k (x3 threads):                                1.3    MegaAllocations/s (0.386s)
$ tbb parallel_for std deallocate 4k (x3 threads):                              0.987  MegaDeallocations/s (0.506s)
$ tbb parallel_for std allocate 4k (x4 threads):                                1.23   MegaAllocations/s (0.405s)
$ tbb parallel_for std deallocate 4k (x4 threads):                              0.988  MegaDeallocations/s (0.506s)
$ tbb scalable pool allocate 1:                                                 77.2   MegaAllocations/s (0.415s)
$ tbb scalable pool deallocate 1:                                               63.1   MegaDeallocations/s (0.507s)
$ tbb scalable pool allocate 4k:                                                3.11   MegaAllocations/s (0.161s)
$ tbb scalable pool deallocate 4k:                                              1.16   MegaDeallocations/s (0.43 s)
$ tbb parallel_for tbb scalable pool allocate 1 (x1 threads):                   74.6   MegaAllocations/s (0.429s)
$ tbb parallel_for tbb scalable pool deallocate 1 (x1 threads):                 60.7   MegaDeallocations/s (0.527s)
$ tbb parallel_for tbb scalable pool allocate 1 (x2 threads):                   143    MegaAllocations/s (0.223s)
$ tbb parallel_for tbb scalable pool deallocate 1 (x2 threads):                 108    MegaDeallocations/s (0.297s)
$ tbb parallel_for tbb scalable pool allocate 1 (x3 threads):                   197    MegaAllocations/s (0.163s)
$ tbb parallel_for tbb scalable pool deallocate 1 (x3 threads):                 159    MegaDeallocations/s (0.201s)
$ tbb parallel_for tbb scalable pool allocate 1 (x4 threads):                   241    MegaAllocations/s (0.133s)
$ tbb parallel_for tbb scalable pool deallocate 1 (x4 threads):                 188    MegaDeallocations/s (0.17 s)
$ tbb parallel_for tbb scalable pool allocate 4k (x1 threads):                  2.94   MegaAllocations/s (0.17 s)
$ tbb parallel_for tbb scalable pool deallocate 4k (x1 threads):                1.15   MegaDeallocations/s (0.435s)
$ tbb parallel_for tbb scalable pool allocate 4k (x2 threads):                  3.01   MegaAllocations/s (0.166s)
$ tbb parallel_for tbb scalable pool deallocate 4k (x2 threads):                1.3    MegaDeallocations/s (0.386s)
$ tbb parallel_for tbb scalable pool allocate 4k (x3 threads):                  2.52   MegaAllocations/s (0.199s)
$ tbb parallel_for tbb scalable pool deallocate 4k (x3 threads):                1.41   MegaDeallocations/s (0.354s)
$ tbb parallel_for tbb scalable pool allocate 4k (x4 threads):                  2.27   MegaAllocations/s (0.22 s)
$ tbb parallel_for tbb scalable pool deallocate 4k (x4 threads):                1.39   MegaDeallocations/s (0.359s)
$ tbb scalable allocate 1:                                                      66.9   MegaAllocations/s (0.478s)
$ tbb scalable deallocate 1:                                                    63.2   MegaDeallocations/s (0.506s)
$ tbb scalable allocate 4k:                                                     2.83   MegaAllocations/s (0.177s)
$ tbb scalable deallocate 4k:                                                   1.13   MegaDeallocations/s (0.442s)
$ tbb parallel_for tbb scalable allocate 1 (x1 threads):                        72.5   MegaAllocations/s (0.441s)
$ tbb parallel_for tbb scalable deallocate 1 (x1 threads):                      62.8   MegaDeallocations/s (0.51 s)
$ tbb parallel_for tbb scalable allocate 1 (x2 threads):                        141    MegaAllocations/s (0.228s)
$ tbb parallel_for tbb scalable deallocate 1 (x2 threads):                      112    MegaDeallocations/s (0.285s)
$ tbb parallel_for tbb scalable allocate 1 (x3 threads):                        197    MegaAllocations/s (0.162s)
$ tbb parallel_for tbb scalable deallocate 1 (x3 threads):                      157    MegaDeallocations/s (0.203s)
$ tbb parallel_for tbb scalable allocate 1 (x4 threads):                        268    MegaAllocations/s (0.119s)
$ tbb parallel_for tbb scalable deallocate 1 (x4 threads):                      227    MegaDeallocations/s (0.141s)
$ tbb parallel_for tbb scalable allocate 4k (x1 threads):                       2.24   MegaAllocations/s (0.223s)
$ tbb parallel_for tbb scalable deallocate 4k (x1 threads):                     1.18   MegaDeallocations/s (0.424s)
$ tbb parallel_for tbb scalable allocate 4k (x2 threads):                       2.72   MegaAllocations/s (0.184s)
$ tbb parallel_for tbb scalable deallocate 4k (x2 threads):                     1.31   MegaDeallocations/s (0.382s)
$ tbb parallel_for tbb scalable allocate 4k (x3 threads):                       2.84   MegaAllocations/s (0.176s)
$ tbb parallel_for tbb scalable deallocate 4k (x3 threads):                     1.89   MegaDeallocations/s (0.264s)
$ tbb parallel_for tbb scalable allocate 4k (x4 threads):                       10.4   MegaAllocations/s (0.0481s)
$ tbb parallel_for tbb scalable deallocate 4k (x4 threads):                     12.8   MegaDeallocations/s (0.0389s)
$ map 4k pages (late commit):                                                   2.18   MegaMaps/s (0.459s)
$ touch pages (late commit):                                                    0.34   MegaTouches/s (2.94 s)
$ touch pages again (late commit):                                              16.3   MegaTouches/s (0.0614s)
$ unmap pages (late commit):                                                    1.03   MegaUnmaps/s (0.971s)
$ map 4k pages (early commit):                                                  2.01   MegaMaps/s (0.497s)
$ touch pages (early commit):                                                   1.04   MegaTouches/s (0.964s)
$ touch pages again (early commit):                                             19.2   MegaTouches/s (0.052s)
$ unmap pages (early commit):                                                   1.05   MegaUnmaps/s (0.949s)
