TBB default threads is   16
OpenMP max threads is    16
Configured maxthreads is 4
Running 47 test cases...
$ hailstone numbers (few long):                                                 1.33   GigaIterations/s (0.188s)
$ hailstone numbers (many short):                                               0.595  GigaIterations/s (0.42 s)
$ tbb parallel_reduce hailstone numbers (few long) (x1 threads):                1.34   GigaIterations/s (0.186s)
$ tbb parallel_reduce hailstone numbers (many short) (x1 threads):              0.61   GigaIterations/s (0.41 s)
$ tbb parallel_reduce hailstone numbers (few long) (x2 threads):                2.73   GigaIterations/s (0.0914s)
$ tbb parallel_reduce hailstone numbers (many short) (x2 threads):              1.22   GigaIterations/s (0.205s)
$ tbb parallel_reduce hailstone numbers (few long) (x3 threads):                3.87   GigaIterations/s (0.0645s)
$ tbb parallel_reduce hailstone numbers (many short) (x3 threads):              1.8    GigaIterations/s (0.139s)
$ tbb parallel_reduce hailstone numbers (few long) (x4 threads):                4.53   GigaIterations/s (0.0552s)
$ tbb parallel_reduce hailstone numbers (many short) (x4 threads):              2.32   GigaIterations/s (0.108s)
$ omp parallel_reduce hailstone numbers (few long) (x1 threads):                1.37   GigaIterations/s (0.182s)
$ omp parallel_reduce hailstone numbers (many short) (x1 threads):              0.601  GigaIterations/s (0.416s)
$ omp parallel_reduce hailstone numbers (few long) (x2 threads):                2.75   GigaIterations/s (0.0909s)
$ omp parallel_reduce hailstone numbers (many short) (x2 threads):              1.18   GigaIterations/s (0.212s)
$ omp parallel_reduce hailstone numbers (few long) (x3 threads):                3.92   GigaIterations/s (0.0638s)
$ omp parallel_reduce hailstone numbers (many short) (x3 threads):              1.74   GigaIterations/s (0.144s)
$ omp parallel_reduce hailstone numbers (few long) (x4 threads):                3.99   GigaIterations/s (0.0627s)
$ omp parallel_reduce hailstone numbers (many short) (x4 threads):              2.01   GigaIterations/s (0.124s)
$ tbb threads rampup:                                                           5.37   K-terminate&reinit calls/s (1.82 s)
$ tbb threads rampdown:                                                         5.34   K-terminate&reinit calls/s (1.83 s)
$ tbb threads flipflop:                                                         5.24   K-terminate&reinit calls/s (1.86 s)
$ tbb threads flipflop lo:                                                      5.37   K-terminate&reinit calls/s (1.82 s)
$ tbb threads flipflop hi:                                                      5.07   K-terminate&reinit calls/s (1.93 s)
$ omp threads rampup:                                                           63.9   Mega-calls/s (0.25 s)
$ omp threads rampdown:                                                         58.5   Mega-calls/s (0.274s)
$ omp threads flipflop:                                                         143    Mega-calls/s (0.112s)
$ omp threads flipflop lo:                                                      132    Mega-calls/s (0.121s)
$ omp threads flipflop hi:                                                      153    Mega-calls/s (0.105s)
$ tbb threads used slow flipflop:                                               2.35   K-iterations/s (0.416s)
$ tbb threads used fast flipflop:                                               1.5    K-iterations/s (0.651s)
$ omp threads used slow flipflop:                                               2.59   K-iterations/s (0.377s)
$ omp threads used fast flipflop:                                               1.95   K-iterations/s (0.501s)
$ omp threads used fast flipflop pragma:                                        1.95   K-iterations/s (0.5  s)
$ tbb then omp:                                                                 5.78   Long jobs/s (0.346s)
$ omp then tbb:                                                                 5.66   Long jobs/s (0.353s)
$ tbb and omp:                                                                  9.24   Long jobs/s (0.216s)
$ tbb and tbb:                                                                  6.45   Long jobs/s (0.31 s)
$ omp and omp:                                                                  11.1   Long jobs/s (0.18 s)
$ tbb then omp (short):                                                         386    Short jobs/s (0.331s)
$ omp then tbb (short):                                                         362    Short jobs/s (0.354s)
$ omp interleaved tbb (short):                                                  379    Short jobs/s (0.338s)
$ tbb then omp (very short):                                                    19.8   Kilo very short jobs/s (0.405s)
$ omp then tbb (very short):                                                    20.6   Kilo very short jobs/s (0.389s)
$ omp interleaved tbb (very short):                                             20.6   Kilo very short jobs/s (0.389s)
$ memset:                                                                       3.91   GByte/s (1.02 s)
$ memsum:                                                                       11.2   GByte/s (0.358s)
$ memcpy:                                                                       3.56   GByte/s (0.562s)
$ tbb parallel_for memset (x1 threads):                                         5.83   GByte/s (0.686s)
$ tbb parallel_for memset (x2 threads):                                         11.4   GByte/s (0.352s)
$ tbb parallel_for memset (x3 threads):                                         16.2   GByte/s (0.247s)
$ tbb parallel_for memset (x4 threads):                                         19.9   GByte/s (0.201s)
$ tbb parallel_reduce memsum (x1 threads):                                      12.6   GByte/s (0.318s)
$ tbb parallel_reduce memsum (x2 threads):                                      23.4   GByte/s (0.171s)
$ tbb parallel_reduce memsum (x3 threads):                                      29.4   GByte/s (0.136s)
$ tbb parallel_reduce memsum (x4 threads):                                      30.9   GByte/s (0.129s)
$ tbb parallel_for memcpy (x1 threads):                                         3.21   GByte/s (0.623s)
$ tbb parallel_for memcpy (x2 threads):                                         6.91   GByte/s (0.289s)
$ tbb parallel_for memcpy (x3 threads):                                         9.82   GByte/s (0.204s)
$ tbb parallel_for memcpy (x4 threads):                                         10.7   GByte/s (0.186s)
$ page strided write sequential:                                                38.8   MegaAccess/s (0.258s)
$ page strided read sequential:                                                 54.1   MegaAccess/s (0.185s)
$ page strided write random:                                                    25.9   MegaAccess/s (0.386s)
$ page strided read random:                                                     25.3   MegaAccess/s (0.395s)
$ tbb parallel_for page strided write sequential (x1 threads):                  39.8   MegaAccess/s (0.251s)
$ tbb parallel_reduce page strided read sequential (x1 threads):                55.9   MegaAccess/s (0.179s)
$ tbb parallel_for page strided write sequential (x2 threads):                  45.6   MegaAccess/s (0.219s)
$ tbb parallel_reduce page strided read sequential (x2 threads):                92.7   MegaAccess/s (0.108s)
$ tbb parallel_for page strided write sequential (x3 threads):                  48.2   MegaAccess/s (0.207s)
$ tbb parallel_reduce page strided read sequential (x3 threads):                106    MegaAccess/s (0.0939s)
$ tbb parallel_for page strided write sequential (x4 threads):                  49.4   MegaAccess/s (0.202s)
$ tbb parallel_reduce page strided read sequential (x4 threads):                109    MegaAccess/s (0.0914s)
$ tbb parallel_for page strided write random (x1 threads):                      32     MegaAccess/s (0.312s)
$ tbb parallel_for page strided read random (x1 threads):                       33.1   MegaAccess/s (0.303s)
$ tbb parallel_for page strided write random (x2 threads):                      41.7   MegaAccess/s (0.24 s)
$ tbb parallel_for page strided read random (x2 threads):                       59.4   MegaAccess/s (0.168s)
$ tbb parallel_for page strided write random (x3 threads):                      46.6   MegaAccess/s (0.214s)
$ tbb parallel_for page strided read random (x3 threads):                       84.8   MegaAccess/s (0.118s)
$ tbb parallel_for page strided write random (x4 threads):                      48.7   MegaAccess/s (0.205s)
$ tbb parallel_for page strided read random (x4 threads):                       105    MegaAccess/s (0.0949s)
$ malloc 1:                                                                     26.8   MegaAllocations/s (1.19 s)
$ free FIFO 1:                                                                  48.5   MegaDeallocations/s (0.66 s)
$ malloc again 1:                                                               27.3   MegaAllocations/s (1.17 s)
$ free LIFO 1:                                                                  29.5   MegaDeallocations/s (1.08 s)
$ malloc 4k:                                                                    0.987  MegaAllocations/s (0.507s)
$ free FIFO 4k:                                                                 0.919  MegaDeallocations/s (0.544s)
$ malloc again 4k:                                                              1.08   MegaAllocations/s (0.464s)
$ free LIFO 4k:                                                                 0.926  MegaDeallocations/s (0.54 s)
$ std allocate 1:                                                               25.3   MegaAllocations/s (1.27 s)
$ std deallocate FIFO 1:                                                        47.4   MegaDeallocations/s (0.675s)
$ std allocate again 1:                                                         23.8   MegaAllocations/s (1.35 s)
$ std deallocate LIFO 1:                                                        31.2   MegaDeallocations/s (1.03 s)
$ std allocate 4k:                                                              0.879  MegaAllocations/s (0.569s)
$ std deallocate FIFO 4k:                                                       0.983  MegaDeallocations/s (0.509s)
$ std allocate again 4k:                                                        1.17   MegaAllocations/s (0.426s)
$ std deallocate LIFO 4k:                                                       0.965  MegaDeallocations/s (0.518s)
$ tbb parallel_for std allocate 1 (x1 threads):                                 23     MegaAllocations/s (1.39 s)
$ tbb parallel_for std deallocate 1 (x1 threads):                               42.5   MegaDeallocations/s (0.752s)
$ tbb parallel_for std allocate 1 (x2 threads):                                 44.3   MegaAllocations/s (0.722s)
$ tbb parallel_for std deallocate 1 (x2 threads):                               74     MegaDeallocations/s (0.432s)
$ tbb parallel_for std allocate 1 (x3 threads):                                 67     MegaAllocations/s (0.477s)
$ tbb parallel_for std deallocate 1 (x3 threads):                               100    MegaDeallocations/s (0.319s)
$ tbb parallel_for std allocate 1 (x4 threads):                                 82.9   MegaAllocations/s (0.386s)
$ tbb parallel_for std deallocate 1 (x4 threads):                               72.2   MegaDeallocations/s (0.443s)
$ tbb parallel_for std allocate 4k (x1 threads):                                1.21   MegaAllocations/s (0.415s)
$ tbb parallel_for std deallocate 4k (x1 threads):                              1.64   MegaDeallocations/s (0.304s)
$ tbb parallel_for std allocate 4k (x2 threads):                                1.33   MegaAllocations/s (0.377s)
$ tbb parallel_for std deallocate 4k (x2 threads):                              1.71   MegaDeallocations/s (0.292s)
$ tbb parallel_for std allocate 4k (x3 threads):                                1.27   MegaAllocations/s (0.393s)
$ tbb parallel_for std deallocate 4k (x3 threads):                              0.956  MegaDeallocations/s (0.523s)
$ tbb parallel_for std allocate 4k (x4 threads):                                1.26   MegaAllocations/s (0.397s)
$ tbb parallel_for std deallocate 4k (x4 threads):                              0.834  MegaDeallocations/s (0.6  s)
$ tbb scalable pool allocate 1:                                                 72.5   MegaAllocations/s (0.442s)
$ tbb scalable pool deallocate 1:                                               54.4   MegaDeallocations/s (0.588s)
$ tbb scalable pool allocate 4k:                                                2.99   MegaAllocations/s (0.167s)
$ tbb scalable pool deallocate 4k:                                              1.13   MegaDeallocations/s (0.442s)
$ tbb parallel_for tbb scalable pool allocate 1 (x1 threads):                   70     MegaAllocations/s (0.457s)
$ tbb parallel_for tbb scalable pool deallocate 1 (x1 threads):                 60.5   MegaDeallocations/s (0.528s)
$ tbb parallel_for tbb scalable pool allocate 1 (x2 threads):                   136    MegaAllocations/s (0.236s)
$ tbb parallel_for tbb scalable pool deallocate 1 (x2 threads):                 113    MegaDeallocations/s (0.282s)
$ tbb parallel_for tbb scalable pool allocate 1 (x3 threads):                   212    MegaAllocations/s (0.151s)
$ tbb parallel_for tbb scalable pool deallocate 1 (x3 threads):                 150    MegaDeallocations/s (0.214s)
$ tbb parallel_for tbb scalable pool allocate 1 (x4 threads):                   249    MegaAllocations/s (0.129s)
$ tbb parallel_for tbb scalable pool deallocate 1 (x4 threads):                 209    MegaDeallocations/s (0.153s)
$ tbb parallel_for tbb scalable pool allocate 4k (x1 threads):                  3.05   MegaAllocations/s (0.164s)
$ tbb parallel_for tbb scalable pool deallocate 4k (x1 threads):                1.05   MegaDeallocations/s (0.476s)
$ tbb parallel_for tbb scalable pool allocate 4k (x2 threads):                  2.82   MegaAllocations/s (0.177s)
$ tbb parallel_for tbb scalable pool deallocate 4k (x2 threads):                1.23   MegaDeallocations/s (0.407s)
$ tbb parallel_for tbb scalable pool allocate 4k (x3 threads):                  2.63   MegaAllocations/s (0.19 s)
$ tbb parallel_for tbb scalable pool deallocate 4k (x3 threads):                1.61   MegaDeallocations/s (0.31 s)
$ tbb parallel_for tbb scalable pool allocate 4k (x4 threads):                  2.54   MegaAllocations/s (0.197s)
$ tbb parallel_for tbb scalable pool deallocate 4k (x4 threads):                1.54   MegaDeallocations/s (0.324s)
$ tbb scalable allocate 1:                                                      71.6   MegaAllocations/s (0.447s)
$ tbb scalable deallocate 1:                                                    63.1   MegaDeallocations/s (0.507s)
$ tbb scalable allocate 4k:                                                     2.84   MegaAllocations/s (0.176s)
$ tbb scalable deallocate 4k:                                                   1.12   MegaDeallocations/s (0.446s)
$ tbb parallel_for tbb scalable allocate 1 (x1 threads):                        64.3   MegaAllocations/s (0.497s)
$ tbb parallel_for tbb scalable deallocate 1 (x1 threads):                      62.7   MegaDeallocations/s (0.51 s)
$ tbb parallel_for tbb scalable allocate 1 (x2 threads):                        140    MegaAllocations/s (0.228s)
$ tbb parallel_for tbb scalable deallocate 1 (x2 threads):                      115    MegaDeallocations/s (0.279s)
$ tbb parallel_for tbb scalable allocate 1 (x3 threads):                        190    MegaAllocations/s (0.169s)
$ tbb parallel_for tbb scalable deallocate 1 (x3 threads):                      168    MegaDeallocations/s (0.19 s)
$ tbb parallel_for tbb scalable allocate 1 (x4 threads):                        247    MegaAllocations/s (0.13 s)
$ tbb parallel_for tbb scalable deallocate 1 (x4 threads):                      225    MegaDeallocations/s (0.142s)
$ tbb parallel_for tbb scalable allocate 4k (x1 threads):                       2.86   MegaAllocations/s (0.175s)
$ tbb parallel_for tbb scalable deallocate 4k (x1 threads):                     1.16   MegaDeallocations/s (0.432s)
$ tbb parallel_for tbb scalable allocate 4k (x2 threads):                       2.45   MegaAllocations/s (0.204s)
$ tbb parallel_for tbb scalable deallocate 4k (x2 threads):                     1.19   MegaDeallocations/s (0.421s)
$ tbb parallel_for tbb scalable allocate 4k (x3 threads):                       3.18   MegaAllocations/s (0.157s)
$ tbb parallel_for tbb scalable deallocate 4k (x3 threads):                     1.66   MegaDeallocations/s (0.301s)
$ tbb parallel_for tbb scalable allocate 4k (x4 threads):                       4.15   MegaAllocations/s (0.121s)
$ tbb parallel_for tbb scalable deallocate 4k (x4 threads):                     3.14   MegaDeallocations/s (0.159s)
$ map 4k pages (late commit):                                                   2.09   MegaMaps/s (0.479s)
$ touch pages (late commit):                                                    0.358  MegaTouches/s (2.79 s)
$ touch pages again (late commit):                                              19.3   MegaTouches/s (0.0518s)
$ unmap pages (late commit):                                                    1.1    MegaUnmaps/s (0.912s)
$ map 4k pages (early commit):                                                  1.98   MegaMaps/s (0.506s)
$ touch pages (early commit):                                                   1.07   MegaTouches/s (0.936s)
$ touch pages again (early commit):                                             19.2   MegaTouches/s (0.0522s)
$ unmap pages (early commit):                                                   1.09   MegaUnmaps/s (0.916s)
