TBB default threads is   16
OpenMP max threads is    16
Configured maxthreads is 4
Running 47 test cases...
$ hailstone numbers (few long):                                                 1.34   GigaIterations/s (0.186s)
$ hailstone numbers (many short):                                               0.586  GigaIterations/s (0.426s)
$ tbb parallel_reduce hailstone numbers (few long) (x1 threads):                1.34   GigaIterations/s (0.186s)
$ tbb parallel_reduce hailstone numbers (many short) (x1 threads):              0.611  GigaIterations/s (0.409s)
$ tbb parallel_reduce hailstone numbers (few long) (x2 threads):                2.76   GigaIterations/s (0.0907s)
$ tbb parallel_reduce hailstone numbers (many short) (x2 threads):              1.2    GigaIterations/s (0.208s)
$ tbb parallel_reduce hailstone numbers (few long) (x3 threads):                3.94   GigaIterations/s (0.0634s)
$ tbb parallel_reduce hailstone numbers (many short) (x3 threads):              1.8    GigaIterations/s (0.139s)
$ tbb parallel_reduce hailstone numbers (few long) (x4 threads):                4.95   GigaIterations/s (0.0505s)
$ tbb parallel_reduce hailstone numbers (many short) (x4 threads):              2.34   GigaIterations/s (0.107s)
$ omp parallel_reduce hailstone numbers (few long) (x1 threads):                1.39   GigaIterations/s (0.18 s)
$ omp parallel_reduce hailstone numbers (many short) (x1 threads):              0.613  GigaIterations/s (0.408s)
$ omp parallel_reduce hailstone numbers (few long) (x2 threads):                2.75   GigaIterations/s (0.0909s)
$ omp parallel_reduce hailstone numbers (many short) (x2 threads):              1.18   GigaIterations/s (0.212s)
$ omp parallel_reduce hailstone numbers (few long) (x3 threads):                2.58   GigaIterations/s (0.0967s)
$ omp parallel_reduce hailstone numbers (many short) (x3 threads):              1.74   GigaIterations/s (0.144s)
$ omp parallel_reduce hailstone numbers (few long) (x4 threads):                4.2    GigaIterations/s (0.0596s)
$ omp parallel_reduce hailstone numbers (many short) (x4 threads):              2.21   GigaIterations/s (0.113s)
$ tbb threads rampup:                                                           5.33   K-terminate&reinit calls/s (1.83 s)
$ tbb threads rampdown:                                                         5.5    K-terminate&reinit calls/s (1.78 s)
$ tbb threads flipflop:                                                         5.12   K-terminate&reinit calls/s (1.91 s)
$ tbb threads flipflop lo:                                                      5.03   K-terminate&reinit calls/s (1.94 s)
$ tbb threads flipflop hi:                                                      5.3    K-terminate&reinit calls/s (1.84 s)
$ omp threads rampup:                                                           64.7   Mega-calls/s (0.247s)
$ omp threads rampdown:                                                         65.8   Mega-calls/s (0.243s)
$ omp threads flipflop:                                                         154    Mega-calls/s (0.104s)
$ omp threads flipflop lo:                                                      174    Mega-calls/s (0.0921s)
$ omp threads flipflop hi:                                                      161    Mega-calls/s (0.0994s)
$ tbb threads used slow flipflop:                                               2.79   K-iterations/s (0.351s)
$ tbb threads used fast flipflop:                                               1.54   K-iterations/s (0.634s)
$ omp threads used slow flipflop:                                               2.65   K-iterations/s (0.368s)
$ omp threads used fast flipflop:                                               1.98   K-iterations/s (0.494s)
$ omp threads used fast flipflop pragma:                                        2      K-iterations/s (0.489s)
$ tbb then omp:                                                                 6      Long jobs/s (0.334s)
$ omp then tbb:                                                                 6.01   Long jobs/s (0.333s)
$ tbb and omp:                                                                  8.96   Long jobs/s (0.223s)
$ tbb and tbb:                                                                  5.92   Long jobs/s (0.338s)
$ omp and omp:                                                                  10.7   Long jobs/s (0.188s)
$ tbb then omp (short):                                                         351    Short jobs/s (0.365s)
$ omp then tbb (short):                                                         371    Short jobs/s (0.345s)
$ omp interleaved tbb (short):                                                  352    Short jobs/s (0.364s)
$ tbb then omp (very short):                                                    21.1   Kilo very short jobs/s (0.38 s)
$ omp then tbb (very short):                                                    20.6   Kilo very short jobs/s (0.389s)
$ omp interleaved tbb (very short):                                             20.1   Kilo very short jobs/s (0.398s)
$ memset:                                                                       4.86   GByte/s (0.823s)
$ memsum:                                                                       12.6   GByte/s (0.318s)
$ memcpy:                                                                       3.58   GByte/s (0.559s)
$ tbb parallel_for memset (x1 threads):                                         5.74   GByte/s (0.697s)
$ tbb parallel_for memset (x2 threads):                                         11.2   GByte/s (0.356s)
$ tbb parallel_for memset (x3 threads):                                         16.9   GByte/s (0.236s)
$ tbb parallel_for memset (x4 threads):                                         21.6   GByte/s (0.186s)
$ tbb parallel_reduce memsum (x1 threads):                                      12     GByte/s (0.335s)
$ tbb parallel_reduce memsum (x2 threads):                                      23.4   GByte/s (0.171s)
$ tbb parallel_reduce memsum (x3 threads):                                      29.3   GByte/s (0.137s)
$ tbb parallel_reduce memsum (x4 threads):                                      34.3   GByte/s (0.117s)
$ tbb parallel_for memcpy (x1 threads):                                         3.25   GByte/s (0.615s)
$ tbb parallel_for memcpy (x2 threads):                                         5.98   GByte/s (0.334s)
$ tbb parallel_for memcpy (x3 threads):                                         9      GByte/s (0.222s)
$ tbb parallel_for memcpy (x4 threads):                                         11.8   GByte/s (0.17 s)
$ page strided write sequential:                                                39.9   MegaAccess/s (0.251s)
$ page strided read sequential:                                                 41.9   MegaAccess/s (0.239s)
$ page strided write random:                                                    32.2   MegaAccess/s (0.311s)
$ page strided read random:                                                     33.2   MegaAccess/s (0.301s)
$ tbb parallel_for page strided write sequential (x1 threads):                  40     MegaAccess/s (0.25 s)
$ tbb parallel_reduce page strided read sequential (x1 threads):                41     MegaAccess/s (0.244s)
$ tbb parallel_for page strided write sequential (x2 threads):                  44.4   MegaAccess/s (0.225s)
$ tbb parallel_reduce page strided read sequential (x2 threads):                90     MegaAccess/s (0.111s)
$ tbb parallel_for page strided write sequential (x3 threads):                  48     MegaAccess/s (0.209s)
$ tbb parallel_reduce page strided read sequential (x3 threads):                106    MegaAccess/s (0.094s)
$ tbb parallel_for page strided write sequential (x4 threads):                  48.9   MegaAccess/s (0.205s)
$ tbb parallel_reduce page strided read sequential (x4 threads):                107    MegaAccess/s (0.0931s)
$ tbb parallel_for page strided write random (x1 threads):                      31.1   MegaAccess/s (0.322s)
$ tbb parallel_for page strided read random (x1 threads):                       27.6   MegaAccess/s (0.363s)
$ tbb parallel_for page strided write random (x2 threads):                      41.7   MegaAccess/s (0.24 s)
$ tbb parallel_for page strided read random (x2 threads):                       56.6   MegaAccess/s (0.177s)
$ tbb parallel_for page strided write random (x3 threads):                      46.5   MegaAccess/s (0.215s)
$ tbb parallel_for page strided read random (x3 threads):                       78.4   MegaAccess/s (0.128s)
$ tbb parallel_for page strided write random (x4 threads):                      47.3   MegaAccess/s (0.211s)
$ tbb parallel_for page strided read random (x4 threads):                       87.4   MegaAccess/s (0.114s)
$ malloc 1:                                                                     25.5   MegaAllocations/s (1.25 s)
$ free FIFO 1:                                                                  48.3   MegaDeallocations/s (0.662s)
$ malloc again 1:                                                               27.2   MegaAllocations/s (1.18 s)
$ free LIFO 1:                                                                  32     MegaDeallocations/s (1    s)
$ malloc 4k:                                                                    1.19   MegaAllocations/s (0.419s)
$ free FIFO 4k:                                                                 1.05   MegaDeallocations/s (0.478s)
$ malloc again 4k:                                                              1.2    MegaAllocations/s (0.416s)
$ free LIFO 4k:                                                                 0.975  MegaDeallocations/s (0.513s)
$ std allocate 1:                                                               24.7   MegaAllocations/s (1.3  s)
$ std deallocate FIFO 1:                                                        48.7   MegaDeallocations/s (0.657s)
$ std allocate again 1:                                                         24.3   MegaAllocations/s (1.32 s)
$ std deallocate LIFO 1:                                                        29.8   MegaDeallocations/s (1.07 s)
$ std allocate 4k:                                                              1.18   MegaAllocations/s (0.424s)
$ std deallocate FIFO 4k:                                                       0.908  MegaDeallocations/s (0.551s)
$ std allocate again 4k:                                                        1.17   MegaAllocations/s (0.426s)
$ std deallocate LIFO 4k:                                                       0.932  MegaDeallocations/s (0.537s)
$ tbb parallel_for std allocate 1 (x1 threads):                                 25.7   MegaAllocations/s (1.25 s)
$ tbb parallel_for std deallocate 1 (x1 threads):                               47.8   MegaDeallocations/s (0.67 s)
$ tbb parallel_for std allocate 1 (x2 threads):                                 44.9   MegaAllocations/s (0.713s)
$ tbb parallel_for std deallocate 1 (x2 threads):                               71.1   MegaDeallocations/s (0.45 s)
$ tbb parallel_for std allocate 1 (x3 threads):                                 66.1   MegaAllocations/s (0.484s)
$ tbb parallel_for std deallocate 1 (x3 threads):                               72.8   MegaDeallocations/s (0.44 s)
$ tbb parallel_for std allocate 1 (x4 threads):                                 82.9   MegaAllocations/s (0.386s)
$ tbb parallel_for std deallocate 1 (x4 threads):                               23.2   MegaDeallocations/s (1.38 s)
$ tbb parallel_for std allocate 4k (x1 threads):                                1.29   MegaAllocations/s (0.389s)
$ tbb parallel_for std deallocate 4k (x1 threads):                              1.66   MegaDeallocations/s (0.301s)
$ tbb parallel_for std allocate 4k (x2 threads):                                1.26   MegaAllocations/s (0.398s)
$ tbb parallel_for std deallocate 4k (x2 threads):                              1.83   MegaDeallocations/s (0.273s)
$ tbb parallel_for std allocate 4k (x3 threads):                                1.4    MegaAllocations/s (0.357s)
$ tbb parallel_for std deallocate 4k (x3 threads):                              1.01   MegaDeallocations/s (0.496s)
$ tbb parallel_for std allocate 4k (x4 threads):                                1.24   MegaAllocations/s (0.402s)
$ tbb parallel_for std deallocate 4k (x4 threads):                              1.59   MegaDeallocations/s (0.315s)
$ tbb scalable pool allocate 1:                                                 75.9   MegaAllocations/s (0.422s)
$ tbb scalable pool deallocate 1:                                               62.9   MegaDeallocations/s (0.509s)
$ tbb scalable pool allocate 4k:                                                3.15   MegaAllocations/s (0.159s)
$ tbb scalable pool deallocate 4k:                                              1.16   MegaDeallocations/s (0.431s)
$ tbb parallel_for tbb scalable pool allocate 1 (x1 threads):                   65.6   MegaAllocations/s (0.487s)
$ tbb parallel_for tbb scalable pool deallocate 1 (x1 threads):                 61.1   MegaDeallocations/s (0.524s)
$ tbb parallel_for tbb scalable pool allocate 1 (x2 threads):                   139    MegaAllocations/s (0.23 s)
$ tbb parallel_for tbb scalable pool deallocate 1 (x2 threads):                 107    MegaDeallocations/s (0.298s)
$ tbb parallel_for tbb scalable pool allocate 1 (x3 threads):                   201    MegaAllocations/s (0.159s)
$ tbb parallel_for tbb scalable pool deallocate 1 (x3 threads):                 155    MegaDeallocations/s (0.206s)
$ tbb parallel_for tbb scalable pool allocate 1 (x4 threads):                   255    MegaAllocations/s (0.125s)
$ tbb parallel_for tbb scalable pool deallocate 1 (x4 threads):                 208    MegaDeallocations/s (0.153s)
$ tbb parallel_for tbb scalable pool allocate 4k (x1 threads):                  3.11   MegaAllocations/s (0.161s)
$ tbb parallel_for tbb scalable pool deallocate 4k (x1 threads):                1.13   MegaDeallocations/s (0.442s)
$ tbb parallel_for tbb scalable pool allocate 4k (x2 threads):                  2.68   MegaAllocations/s (0.187s)
$ tbb parallel_for tbb scalable pool deallocate 4k (x2 threads):                1.23   MegaDeallocations/s (0.408s)
$ tbb parallel_for tbb scalable pool allocate 4k (x3 threads):                  2.78   MegaAllocations/s (0.18 s)
$ tbb parallel_for tbb scalable pool deallocate 4k (x3 threads):                1.46   MegaDeallocations/s (0.342s)
$ tbb parallel_for tbb scalable pool allocate 4k (x4 threads):                  2.81   MegaAllocations/s (0.178s)
$ tbb parallel_for tbb scalable pool deallocate 4k (x4 threads):                1.57   MegaDeallocations/s (0.318s)
$ tbb scalable allocate 1:                                                      68.6   MegaAllocations/s (0.467s)
$ tbb scalable deallocate 1:                                                    63.3   MegaDeallocations/s (0.505s)
$ tbb scalable allocate 4k:                                                     2.8    MegaAllocations/s (0.179s)
$ tbb scalable deallocate 4k:                                                   1.11   MegaDeallocations/s (0.449s)
$ tbb parallel_for tbb scalable allocate 1 (x1 threads):                        71.2   MegaAllocations/s (0.45 s)
$ tbb parallel_for tbb scalable deallocate 1 (x1 threads):                      61.7   MegaDeallocations/s (0.518s)
$ tbb parallel_for tbb scalable allocate 1 (x2 threads):                        115    MegaAllocations/s (0.279s)
$ tbb parallel_for tbb scalable deallocate 1 (x2 threads):                      103    MegaDeallocations/s (0.31 s)
$ tbb parallel_for tbb scalable allocate 1 (x3 threads):                        189    MegaAllocations/s (0.169s)
$ tbb parallel_for tbb scalable deallocate 1 (x3 threads):                      153    MegaDeallocations/s (0.209s)
$ tbb parallel_for tbb scalable allocate 1 (x4 threads):                        257    MegaAllocations/s (0.125s)
$ tbb parallel_for tbb scalable deallocate 1 (x4 threads):                      238    MegaDeallocations/s (0.134s)
$ tbb parallel_for tbb scalable allocate 4k (x1 threads):                       2.87   MegaAllocations/s (0.174s)
$ tbb parallel_for tbb scalable deallocate 4k (x1 threads):                     1.15   MegaDeallocations/s (0.435s)
$ tbb parallel_for tbb scalable allocate 4k (x2 threads):                       2.49   MegaAllocations/s (0.201s)
$ tbb parallel_for tbb scalable deallocate 4k (x2 threads):                     1.24   MegaDeallocations/s (0.402s)
$ tbb parallel_for tbb scalable allocate 4k (x3 threads):                       2.98   MegaAllocations/s (0.168s)
$ tbb parallel_for tbb scalable deallocate 4k (x3 threads):                     1.51   MegaDeallocations/s (0.331s)
$ tbb parallel_for tbb scalable allocate 4k (x4 threads):                       3.51   MegaAllocations/s (0.142s)
$ tbb parallel_for tbb scalable deallocate 4k (x4 threads):                     2.56   MegaDeallocations/s (0.196s)
$ map 4k pages (late commit):                                                   2.03   MegaMaps/s (0.494s)
$ touch pages (late commit):                                                    0.347  MegaTouches/s (2.88 s)
$ touch pages again (late commit):                                              19.4   MegaTouches/s (0.0516s)
$ unmap pages (late commit):                                                    1.11   MegaUnmaps/s (0.902s)
$ map 4k pages (early commit):                                                  1.99   MegaMaps/s (0.504s)
$ touch pages (early commit):                                                   1.1    MegaTouches/s (0.911s)
$ touch pages again (early commit):                                             19     MegaTouches/s (0.0526s)
$ unmap pages (early commit):                                                   1.03   MegaUnmaps/s (0.972s)
