TBB default threads is   4
OpenMP max threads is    4
Configured maxthreads is 4
Running 47 test cases...
$ hailstone numbers (few long):                                                 1.31   GigaIterations/s (0.191s)
$ hailstone numbers (many short):                                               0.455  GigaIterations/s (0.55 s)
$ tbb parallel_reduce hailstone numbers (few long) (x1 threads):                1.19   GigaIterations/s (0.21 s)
$ tbb parallel_reduce hailstone numbers (many short) (x1 threads):              0.464  GigaIterations/s (0.539s)
$ tbb parallel_reduce hailstone numbers (few long) (x2 threads):                2.27   GigaIterations/s (0.11 s)
$ tbb parallel_reduce hailstone numbers (many short) (x2 threads):              0.806  GigaIterations/s (0.31 s)
$ tbb parallel_reduce hailstone numbers (few long) (x3 threads):                2.66   GigaIterations/s (0.0939s)
$ tbb parallel_reduce hailstone numbers (many short) (x3 threads):              1.35   GigaIterations/s (0.185s)
$ tbb parallel_reduce hailstone numbers (few long) (x4 threads):                4.87   GigaIterations/s (0.0514s)
$ tbb parallel_reduce hailstone numbers (many short) (x4 threads):              1.64   GigaIterations/s (0.152s)
$ omp parallel_reduce hailstone numbers (few long) (x1 threads):                1.21   GigaIterations/s (0.206s)
$ omp parallel_reduce hailstone numbers (many short) (x1 threads):              0.466  GigaIterations/s (0.536s)
$ omp parallel_reduce hailstone numbers (few long) (x2 threads):                2.36   GigaIterations/s (0.106s)
$ omp parallel_reduce hailstone numbers (many short) (x2 threads):              0.91   GigaIterations/s (0.275s)
$ omp parallel_reduce hailstone numbers (few long) (x3 threads):                3.47   GigaIterations/s (0.072s)
$ omp parallel_reduce hailstone numbers (many short) (x3 threads):              1.1    GigaIterations/s (0.227s)
$ omp parallel_reduce hailstone numbers (few long) (x4 threads):                4.07   GigaIterations/s (0.0614s)
$ omp parallel_reduce hailstone numbers (many short) (x4 threads):              1.79   GigaIterations/s (0.14 s)
$ tbb threads rampup:                                                           45.7   K-terminate&reinit calls/s (0.214s)
$ tbb threads rampdown:                                                         47.5   K-terminate&reinit calls/s (0.206s)
$ tbb threads flipflop:                                                         46.8   K-terminate&reinit calls/s (0.208s)
$ tbb threads flipflop lo:                                                      46.9   K-terminate&reinit calls/s (0.208s)
$ tbb threads flipflop hi:                                                      43.8   K-terminate&reinit calls/s (0.223s)
$ omp threads rampup:                                                           75.4   Mega-calls/s (0.212s)
$ omp threads rampdown:                                                         74.3   Mega-calls/s (0.215s)
$ omp threads flipflop:                                                         96.7   Mega-calls/s (0.166s)
$ omp threads flipflop lo:                                                      155    Mega-calls/s (0.103s)
$ omp threads flipflop hi:                                                      158    Mega-calls/s (0.101s)
$ tbb threads used slow flipflop:                                               2.43   K-iterations/s (0.402s)
$ tbb threads used fast flipflop:                                               1.01   K-iterations/s (0.967s)
$ omp threads used slow flipflop:                                               2.14   K-iterations/s (0.456s)
$ omp threads used fast flipflop:                                               1.16   K-iterations/s (0.843s)
$ omp threads used fast flipflop pragma:                                        1.05   K-iterations/s (0.929s)
$ tbb then omp:                                                                 4.15   Long jobs/s (0.482s)
$ omp then tbb:                                                                 4.28   Long jobs/s (0.467s)
$ tbb and omp:                                                                  3.84   Long jobs/s (0.521s)
$ tbb and tbb:                                                                  5.19   Long jobs/s (0.386s)
$ omp and omp:                                                                  3.43   Long jobs/s (0.583s)
$ tbb then omp (short):                                                         305    Short jobs/s (0.42 s)
$ omp then tbb (short):                                                         273    Short jobs/s (0.468s)
$ omp interleaved tbb (short):                                                  298    Short jobs/s (0.43 s)
$ tbb then omp (very short):                                                    20.4   Kilo very short jobs/s (0.391s)
$ omp then tbb (very short):                                                    16.6   Kilo very short jobs/s (0.482s)
$ omp interleaved tbb (very short):                                             20.1   Kilo very short jobs/s (0.398s)
$ memset:                                                                       3.53   GByte/s (1.13 s)
$ memsum:                                                                       6.42   GByte/s (0.623s)
$ memcpy:                                                                       2.34   GByte/s (0.855s)
$ tbb parallel_for memset (x1 threads):                                         3.59   GByte/s (1.11 s)
$ tbb parallel_for memset (x2 threads):                                         4.84   GByte/s (0.827s)
$ tbb parallel_for memset (x3 threads):                                         5.96   GByte/s (0.671s)
$ tbb parallel_for memset (x4 threads):                                         6.86   GByte/s (0.583s)
$ tbb parallel_reduce memsum (x1 threads):                                      6.46   GByte/s (0.619s)
$ tbb parallel_reduce memsum (x2 threads):                                      10.2   GByte/s (0.394s)
$ tbb parallel_reduce memsum (x3 threads):                                      12.3   GByte/s (0.324s)
$ tbb parallel_reduce memsum (x4 threads):                                      13.9   GByte/s (0.289s)
$ tbb parallel_for memcpy (x1 threads):                                         2.36   GByte/s (0.849s)
$ tbb parallel_for memcpy (x2 threads):                                         3.75   GByte/s (0.533s)
$ tbb parallel_for memcpy (x3 threads):                                         4.74   GByte/s (0.422s)
$ tbb parallel_for memcpy (x4 threads):                                         5.55   GByte/s (0.361s)
$ page strided write sequential:                                                17.7   MegaAccess/s (0.563s)
$ page strided read sequential:                                                 18.6   MegaAccess/s (0.539s)
$ page strided write random:                                                    8.59   MegaAccess/s (1.16 s)
$ page strided read random:                                                     9.6    MegaAccess/s (1.04 s)
$ tbb parallel_for page strided write sequential (x1 threads):                  16.3   MegaAccess/s (0.613s)
$ tbb parallel_reduce page strided read sequential (x1 threads):                16.4   MegaAccess/s (0.608s)
$ tbb parallel_for page strided write sequential (x2 threads):                  35.9   MegaAccess/s (0.279s)
$ tbb parallel_reduce page strided read sequential (x2 threads):                37.9   MegaAccess/s (0.264s)
$ tbb parallel_for page strided write sequential (x3 threads):                  55.3   MegaAccess/s (0.181s)
$ tbb parallel_reduce page strided read sequential (x3 threads):                55.6   MegaAccess/s (0.18 s)
$ tbb parallel_for page strided write sequential (x4 threads):                  69.9   MegaAccess/s (0.143s)
$ tbb parallel_reduce page strided read sequential (x4 threads):                71.7   MegaAccess/s (0.14 s)
$ tbb parallel_for page strided write random (x1 threads):                      9.38   MegaAccess/s (1.07 s)
$ tbb parallel_for page strided read random (x1 threads):                       9.62   MegaAccess/s (1.04 s)
$ tbb parallel_for page strided write random (x2 threads):                      19.6   MegaAccess/s (0.509s)
$ tbb parallel_for page strided read random (x2 threads):                       20.7   MegaAccess/s (0.483s)
$ tbb parallel_for page strided write random (x3 threads):                      28.8   MegaAccess/s (0.347s)
$ tbb parallel_for page strided read random (x3 threads):                       30.3   MegaAccess/s (0.33 s)
$ tbb parallel_for page strided write random (x4 threads):                      39.5   MegaAccess/s (0.253s)
$ tbb parallel_for page strided read random (x4 threads):                       39.6   MegaAccess/s (0.253s)
$ malloc 1:                                                                     25.8   MegaAllocations/s (1.24 s)
$ free FIFO 1:                                                                  42.6   MegaDeallocations/s (0.752s)
$ malloc again 1:                                                               26     MegaAllocations/s (1.23 s)
$ free LIFO 1:                                                                  35.9   MegaDeallocations/s (0.892s)
$ malloc 4k:                                                                    1.14   MegaAllocations/s (0.438s)
$ free FIFO 4k:                                                                 0.926  MegaDeallocations/s (0.54 s)
$ malloc again 4k:                                                              1.13   MegaAllocations/s (0.442s)
$ free LIFO 4k:                                                                 0.96   MegaDeallocations/s (0.521s)
$ std allocate 1:                                                               22.8   MegaAllocations/s (1.4  s)
$ std deallocate FIFO 1:                                                        40.3   MegaDeallocations/s (0.794s)
$ std allocate again 1:                                                         23.5   MegaAllocations/s (1.36 s)
$ std deallocate LIFO 1:                                                        33.8   MegaDeallocations/s (0.947s)
$ std allocate 4k:                                                              1.02   MegaAllocations/s (0.492s)
$ std deallocate FIFO 4k:                                                       0.941  MegaDeallocations/s (0.531s)
$ std allocate again 4k:                                                        1.1    MegaAllocations/s (0.453s)
$ std deallocate LIFO 4k:                                                       0.874  MegaDeallocations/s (0.572s)
$ tbb parallel_for std allocate 1 (x1 threads):                                 25.3   MegaAllocations/s (1.26 s)
$ tbb parallel_for std deallocate 1 (x1 threads):                               41.6   MegaDeallocations/s (0.769s)
$ tbb parallel_for std allocate 1 (x2 threads):                                 45.1   MegaAllocations/s (0.709s)
$ tbb parallel_for std deallocate 1 (x2 threads):                               74.9   MegaDeallocations/s (0.427s)
$ tbb parallel_for std allocate 1 (x3 threads):                                 70.5   MegaAllocations/s (0.454s)
$ tbb parallel_for std deallocate 1 (x3 threads):                               101    MegaDeallocations/s (0.317s)
$ tbb parallel_for std allocate 1 (x4 threads):                                 91.6   MegaAllocations/s (0.349s)
$ tbb parallel_for std deallocate 1 (x4 threads):                               11.3   MegaDeallocations/s (2.84 s)
$ tbb parallel_for std allocate 4k (x1 threads):                                0.965  MegaAllocations/s (0.518s)
$ tbb parallel_for std deallocate 4k (x1 threads):                              1.14   MegaDeallocations/s (0.439s)
$ tbb parallel_for std allocate 4k (x2 threads):                                1.32   MegaAllocations/s (0.379s)
$ tbb parallel_for std deallocate 4k (x2 threads):                              0.724  MegaDeallocations/s (0.691s)
$ tbb parallel_for std allocate 4k (x3 threads):                                1.31   MegaAllocations/s (0.383s)
$ tbb parallel_for std deallocate 4k (x3 threads):                              0.44   MegaDeallocations/s (1.14 s)
$ tbb parallel_for std allocate 4k (x4 threads):                                1.28   MegaAllocations/s (0.391s)
$ tbb parallel_for std deallocate 4k (x4 threads):                              1.07   MegaDeallocations/s (0.467s)
$ tbb scalable pool allocate 1:                                                 68.7   MegaAllocations/s (0.466s)
$ tbb scalable pool deallocate 1:                                               57.1   MegaDeallocations/s (0.56 s)
$ tbb scalable pool allocate 4k:                                                2.48   MegaAllocations/s (0.201s)
$ tbb scalable pool deallocate 4k:                                              1.06   MegaDeallocations/s (0.472s)
$ tbb parallel_for tbb scalable pool allocate 1 (x1 threads):                   65.6   MegaAllocations/s (0.488s)
$ tbb parallel_for tbb scalable pool deallocate 1 (x1 threads):                 61.9   MegaDeallocations/s (0.517s)
$ tbb parallel_for tbb scalable pool allocate 1 (x2 threads):                   127    MegaAllocations/s (0.252s)
$ tbb parallel_for tbb scalable pool deallocate 1 (x2 threads):                 113    MegaDeallocations/s (0.282s)
$ tbb parallel_for tbb scalable pool allocate 1 (x3 threads):                   191    MegaAllocations/s (0.167s)
$ tbb parallel_for tbb scalable pool deallocate 1 (x3 threads):                 158    MegaDeallocations/s (0.202s)
$ tbb parallel_for tbb scalable pool allocate 1 (x4 threads):                   225    MegaAllocations/s (0.142s)
$ tbb parallel_for tbb scalable pool deallocate 1 (x4 threads):                 208    MegaDeallocations/s (0.153s)
$ tbb parallel_for tbb scalable pool allocate 4k (x1 threads):                  2.62   MegaAllocations/s (0.191s)
$ tbb parallel_for tbb scalable pool deallocate 4k (x1 threads):                0.952  MegaDeallocations/s (0.525s)
$ tbb parallel_for tbb scalable pool allocate 4k (x2 threads):                  2.96   MegaAllocations/s (0.169s)
$ tbb parallel_for tbb scalable pool deallocate 4k (x2 threads):                1.23   MegaDeallocations/s (0.407s)
$ tbb parallel_for tbb scalable pool allocate 4k (x3 threads):                  2.96   MegaAllocations/s (0.169s)
$ tbb parallel_for tbb scalable pool deallocate 4k (x3 threads):                1.71   MegaDeallocations/s (0.293s)
$ tbb parallel_for tbb scalable pool allocate 4k (x4 threads):                  3.01   MegaAllocations/s (0.166s)
$ tbb parallel_for tbb scalable pool deallocate 4k (x4 threads):                1.64   MegaDeallocations/s (0.304s)
$ tbb scalable allocate 1:                                                      67.1   MegaAllocations/s (0.477s)
$ tbb scalable deallocate 1:                                                    59.2   MegaDeallocations/s (0.541s)
$ tbb scalable allocate 4k:                                                     2.18   MegaAllocations/s (0.229s)
$ tbb scalable deallocate 4k:                                                   1.1    MegaDeallocations/s (0.453s)
$ tbb parallel_for tbb scalable allocate 1 (x1 threads):                        62     MegaAllocations/s (0.516s)
$ tbb parallel_for tbb scalable deallocate 1 (x1 threads):                      56.5   MegaDeallocations/s (0.566s)
$ tbb parallel_for tbb scalable allocate 1 (x2 threads):                        121    MegaAllocations/s (0.264s)
$ tbb parallel_for tbb scalable deallocate 1 (x2 threads):                      98.8   MegaDeallocations/s (0.324s)
$ tbb parallel_for tbb scalable allocate 1 (x3 threads):                        179    MegaAllocations/s (0.179s)
$ tbb parallel_for tbb scalable deallocate 1 (x3 threads):                      152    MegaDeallocations/s (0.21 s)
$ tbb parallel_for tbb scalable allocate 1 (x4 threads):                        254    MegaAllocations/s (0.126s)
$ tbb parallel_for tbb scalable deallocate 1 (x4 threads):                      229    MegaDeallocations/s (0.14 s)
$ tbb parallel_for tbb scalable allocate 4k (x1 threads):                       2.44   MegaAllocations/s (0.205s)
$ tbb parallel_for tbb scalable deallocate 4k (x1 threads):                     1.1    MegaDeallocations/s (0.454s)
$ tbb parallel_for tbb scalable allocate 4k (x2 threads):                       2.82   MegaAllocations/s (0.177s)
$ tbb parallel_for tbb scalable deallocate 4k (x2 threads):                     1.21   MegaDeallocations/s (0.413s)
$ tbb parallel_for tbb scalable allocate 4k (x3 threads):                       2.98   MegaAllocations/s (0.168s)
$ tbb parallel_for tbb scalable deallocate 4k (x3 threads):                     1.81   MegaDeallocations/s (0.276s)
$ tbb parallel_for tbb scalable allocate 4k (x4 threads):                       9.96   MegaAllocations/s (0.0502s)
$ tbb parallel_for tbb scalable deallocate 4k (x4 threads):                     12.2   MegaDeallocations/s (0.041s)
$ map 4k pages (late commit):                                                   2.06   MegaMaps/s (0.485s)
$ touch pages (late commit):                                                    0.345  MegaTouches/s (2.9  s)
$ touch pages again (late commit):                                              10.3   MegaTouches/s (0.0972s)
$ unmap pages (late commit):                                                    1.11   MegaUnmaps/s (0.904s)
$ map 4k pages (early commit):                                                  2.06   MegaMaps/s (0.485s)
$ touch pages (early commit):                                                   1.23   MegaTouches/s (0.816s)
$ touch pages again (early commit):                                             10.3   MegaTouches/s (0.0969s)
$ unmap pages (early commit):                                                   1.01   MegaUnmaps/s (0.991s)
