Running 17 test cases...
$ hailstone numbers:                                                            0.505  GigaIterations/s (0.495s)
$ tbb parallel_reduce hailstone numbers (x1 threads):                           0.503  GigaIterations/s (0.497s)
$ tbb parallel_reduce hailstone numbers (x2 threads):                           1.01   GigaIterations/s (0.248s)
$ tbb parallel_reduce hailstone numbers (x3 threads):                           1.5    GigaIterations/s (0.167s)
$ tbb parallel_reduce hailstone numbers (x4 threads):                           2.01   GigaIterations/s (0.125s)
$ tbb parallel_reduce hailstone numbers (x5 threads):                           2.48   GigaIterations/s (0.101s)
$ tbb parallel_reduce hailstone numbers (x6 threads):                           3      GigaIterations/s (0.0834s)
$ tbb parallel_reduce hailstone numbers (x7 threads):                           3.48   GigaIterations/s (0.0718s)
$ tbb parallel_reduce hailstone numbers (x8 threads):                           3.95   GigaIterations/s (0.0633s)
$ tbb parallel_reduce hailstone numbers (x9 threads):                           4.15   GigaIterations/s (0.0603s)
$ tbb parallel_reduce hailstone numbers (x10 threads):                          4.43   GigaIterations/s (0.0564s)
$ tbb parallel_reduce hailstone numbers (x11 threads):                          4.75   GigaIterations/s (0.0526s)
$ tbb parallel_reduce hailstone numbers (x12 threads):                          5.13   GigaIterations/s (0.0487s)
$ tbb parallel_reduce hailstone numbers (x13 threads):                          5.2    GigaIterations/s (0.048s)
$ tbb parallel_reduce hailstone numbers (x14 threads):                          5.27   GigaIterations/s (0.0475s)
$ tbb parallel_reduce hailstone numbers (x15 threads):                          4.94   GigaIterations/s (0.0506s)
$ tbb parallel_reduce hailstone numbers (x16 threads):                          6.28   GigaIterations/s (0.0398s)
$ memset:                                                                       4.55   GByte/s (0.879s)
$ memsearch:                                                                    6.21   GByte/s (0.644s)
$ memcpy:                                                                       3.55   GByte/s (0.564s)
$ tbb parallel_for memset (x1 threads):                                         4.56   GByte/s (0.878s)
$ tbb parallel_for memset (x2 threads):                                         8.98   GByte/s (0.446s)
$ tbb parallel_for memset (x3 threads):                                         10.4   GByte/s (0.384s)
$ tbb parallel_for memset (x4 threads):                                         12     GByte/s (0.334s)
$ tbb parallel_for memset (x5 threads):                                         13.4   GByte/s (0.298s)
$ tbb parallel_for memset (x6 threads):                                         15     GByte/s (0.267s)
$ tbb parallel_for memset (x7 threads):                                         16.2   GByte/s (0.247s)
$ tbb parallel_for memset (x8 threads):                                         16.9   GByte/s (0.237s)
$ tbb parallel_for memset (x9 threads):                                         17.2   GByte/s (0.233s)
$ tbb parallel_for memset (x10 threads):                                        17     GByte/s (0.235s)
$ tbb parallel_for memset (x11 threads):                                        17.3   GByte/s (0.231s)
$ tbb parallel_for memset (x12 threads):                                        17.6   GByte/s (0.228s)
$ tbb parallel_for memset (x13 threads):                                        17.2   GByte/s (0.232s)
$ tbb parallel_for memset (x14 threads):                                        17.5   GByte/s (0.228s)
$ tbb parallel_for memset (x15 threads):                                        16.7   GByte/s (0.24 s)
$ tbb parallel_for memset (x16 threads):                                        17     GByte/s (0.235s)
$ tbb parallel_reduce memsearch (x1 threads):                                   6.25   GByte/s (0.64 s)
$ tbb parallel_reduce memsearch (x2 threads):                                   11.9   GByte/s (0.335s)
$ tbb parallel_reduce memsearch (x3 threads):                                   15.5   GByte/s (0.258s)
$ tbb parallel_reduce memsearch (x4 threads):                                   19.1   GByte/s (0.21 s)
$ tbb parallel_reduce memsearch (x5 threads):                                   21.9   GByte/s (0.182s)
$ tbb parallel_reduce memsearch (x6 threads):                                   24.5   GByte/s (0.164s)
$ tbb parallel_reduce memsearch (x7 threads):                                   25.8   GByte/s (0.155s)
$ tbb parallel_reduce memsearch (x8 threads):                                   25.7   GByte/s (0.156s)
$ tbb parallel_reduce memsearch (x9 threads):                                   26     GByte/s (0.154s)
$ tbb parallel_reduce memsearch (x10 threads):                                  27.5   GByte/s (0.146s)
$ tbb parallel_reduce memsearch (x11 threads):                                  27.4   GByte/s (0.146s)
$ tbb parallel_reduce memsearch (x12 threads):                                  27.5   GByte/s (0.145s)
$ tbb parallel_reduce memsearch (x13 threads):                                  27.5   GByte/s (0.145s)
$ tbb parallel_reduce memsearch (x14 threads):                                  27.7   GByte/s (0.145s)
$ tbb parallel_reduce memsearch (x15 threads):                                  27.4   GByte/s (0.146s)
$ tbb parallel_reduce memsearch (x16 threads):                                  27.1   GByte/s (0.148s)
$ tbb parallel_for memcpy (x1 threads):                                         3.5    GByte/s (0.571s)
$ tbb parallel_for memcpy (x2 threads):                                         6.72   GByte/s (0.298s)
$ tbb parallel_for memcpy (x3 threads):                                         8.65   GByte/s (0.231s)
$ tbb parallel_for memcpy (x4 threads):                                         10.1   GByte/s (0.198s)
$ tbb parallel_for memcpy (x5 threads):                                         11     GByte/s (0.183s)
$ tbb parallel_for memcpy (x6 threads):                                         11.4   GByte/s (0.175s)
$ tbb parallel_for memcpy (x7 threads):                                         11.5   GByte/s (0.174s)
$ tbb parallel_for memcpy (x8 threads):                                         11.7   GByte/s (0.171s)
$ tbb parallel_for memcpy (x9 threads):                                         11.4   GByte/s (0.175s)
$ tbb parallel_for memcpy (x10 threads):                                        11.2   GByte/s (0.178s)
$ tbb parallel_for memcpy (x11 threads):                                        10.9   GByte/s (0.183s)
$ tbb parallel_for memcpy (x12 threads):                                        10.8   GByte/s (0.186s)
$ tbb parallel_for memcpy (x13 threads):                                        10.7   GByte/s (0.186s)
$ tbb parallel_for memcpy (x14 threads):                                        10.7   GByte/s (0.187s)
$ tbb parallel_for memcpy (x15 threads):                                        10.8   GByte/s (0.185s)
$ tbb parallel_for memcpy (x16 threads):                                        10.9   GByte/s (0.184s)
$ page strided write sequential:                                                65.3   MegaAccess/s (0.153s)
$ page strided read sequential:                                                 64.6   MegaAccess/s (0.155s)
$ page strided write random:                                                    20.1   MegaAccess/s (0.497s)
$ page strided read random:                                                     20.6   MegaAccess/s (0.486s)
$ tbb parallel_for page strided write sequential (x1 threads):                  67.3   MegaAccess/s (0.149s)
$ tbb parallel_reduce page strided read sequential (x1 threads):                63.4   MegaAccess/s (0.158s)
$ tbb parallel_for page strided write sequential (x2 threads):                  120    MegaAccess/s (0.0834s)
$ tbb parallel_reduce page strided read sequential (x2 threads):                128    MegaAccess/s (0.078s)
$ tbb parallel_for page strided write sequential (x3 threads):                  148    MegaAccess/s (0.0674s)
$ tbb parallel_reduce page strided read sequential (x3 threads):                189    MegaAccess/s (0.053s)
$ tbb parallel_for page strided write sequential (x4 threads):                  158    MegaAccess/s (0.0631s)
$ tbb parallel_reduce page strided read sequential (x4 threads):                233    MegaAccess/s (0.0429s)
$ tbb parallel_for page strided write sequential (x5 threads):                  158    MegaAccess/s (0.0632s)
$ tbb parallel_reduce page strided read sequential (x5 threads):                238    MegaAccess/s (0.042s)
$ tbb parallel_for page strided write sequential (x6 threads):                  160    MegaAccess/s (0.0623s)
$ tbb parallel_reduce page strided read sequential (x6 threads):                278    MegaAccess/s (0.036s)
$ tbb parallel_for page strided write sequential (x7 threads):                  159    MegaAccess/s (0.0631s)
$ tbb parallel_reduce page strided read sequential (x7 threads):                296    MegaAccess/s (0.0338s)
$ tbb parallel_for page strided write sequential (x8 threads):                  158    MegaAccess/s (0.0631s)
$ tbb parallel_reduce page strided read sequential (x8 threads):                294    MegaAccess/s (0.034s)
$ tbb parallel_for page strided write sequential (x9 threads):                  158    MegaAccess/s (0.0633s)
$ tbb parallel_reduce page strided read sequential (x9 threads):                299    MegaAccess/s (0.0335s)
$ tbb parallel_for page strided write sequential (x10 threads):                 156    MegaAccess/s (0.064s)
$ tbb parallel_reduce page strided read sequential (x10 threads):               287    MegaAccess/s (0.0348s)
$ tbb parallel_for page strided write sequential (x11 threads):                 156    MegaAccess/s (0.064s)
$ tbb parallel_reduce page strided read sequential (x11 threads):               280    MegaAccess/s (0.0358s)
$ tbb parallel_for page strided write sequential (x12 threads):                 156    MegaAccess/s (0.0642s)
$ tbb parallel_reduce page strided read sequential (x12 threads):               280    MegaAccess/s (0.0357s)
$ tbb parallel_for page strided write sequential (x13 threads):                 155    MegaAccess/s (0.0644s)
$ tbb parallel_reduce page strided read sequential (x13 threads):               274    MegaAccess/s (0.0365s)
$ tbb parallel_for page strided write sequential (x14 threads):                 155    MegaAccess/s (0.0645s)
$ tbb parallel_reduce page strided read sequential (x14 threads):               274    MegaAccess/s (0.0365s)
$ tbb parallel_for page strided write sequential (x15 threads):                 154    MegaAccess/s (0.0647s)
$ tbb parallel_reduce page strided read sequential (x15 threads):               269    MegaAccess/s (0.0372s)
$ tbb parallel_for page strided write sequential (x16 threads):                 154    MegaAccess/s (0.0649s)
$ tbb parallel_reduce page strided read sequential (x16 threads):               267    MegaAccess/s (0.0375s)
$ tbb parallel_for page strided write random (x1 threads):                      20.2   MegaAccess/s (0.496s)
$ tbb parallel_for page strided read random (x1 threads):                       20.3   MegaAccess/s (0.492s)
$ tbb parallel_for page strided write random (x2 threads):                      43     MegaAccess/s (0.233s)
$ tbb parallel_for page strided read random (x2 threads):                       43.4   MegaAccess/s (0.231s)
$ tbb parallel_for page strided write random (x3 threads):                      62.7   MegaAccess/s (0.16 s)
$ tbb parallel_for page strided read random (x3 threads):                       63.8   MegaAccess/s (0.157s)
$ tbb parallel_for page strided write random (x4 threads):                      83     MegaAccess/s (0.121s)
$ tbb parallel_for page strided read random (x4 threads):                       84.5   MegaAccess/s (0.118s)
$ tbb parallel_for page strided write random (x5 threads):                      100    MegaAccess/s (0.0999s)
$ tbb parallel_for page strided read random (x5 threads):                       104    MegaAccess/s (0.0966s)
$ tbb parallel_for page strided write random (x6 threads):                      114    MegaAccess/s (0.0873s)
$ tbb parallel_for page strided read random (x6 threads):                       123    MegaAccess/s (0.0811s)
$ tbb parallel_for page strided write random (x7 threads):                      131    MegaAccess/s (0.0765s)
$ tbb parallel_for page strided read random (x7 threads):                       144    MegaAccess/s (0.0696s)
$ tbb parallel_for page strided write random (x8 threads):                      132    MegaAccess/s (0.0757s)
$ tbb parallel_for page strided read random (x8 threads):                       162    MegaAccess/s (0.0616s)
$ tbb parallel_for page strided write random (x9 threads):                      131    MegaAccess/s (0.0764s)
$ tbb parallel_for page strided read random (x9 threads):                       161    MegaAccess/s (0.062s)
$ tbb parallel_for page strided write random (x10 threads):                     128    MegaAccess/s (0.078s)
$ tbb parallel_for page strided read random (x10 threads):                      161    MegaAccess/s (0.0622s)
$ tbb parallel_for page strided write random (x11 threads):                     133    MegaAccess/s (0.075s)
$ tbb parallel_for page strided read random (x11 threads):                      160    MegaAccess/s (0.0627s)
$ tbb parallel_for page strided write random (x12 threads):                     131    MegaAccess/s (0.0765s)
$ tbb parallel_for page strided read random (x12 threads):                      158    MegaAccess/s (0.0631s)
$ tbb parallel_for page strided write random (x13 threads):                     133    MegaAccess/s (0.075s)
$ tbb parallel_for page strided read random (x13 threads):                      156    MegaAccess/s (0.0641s)
$ tbb parallel_for page strided write random (x14 threads):                     130    MegaAccess/s (0.0767s)
$ tbb parallel_for page strided read random (x14 threads):                      157    MegaAccess/s (0.0636s)
$ tbb parallel_for page strided write random (x15 threads):                     134    MegaAccess/s (0.0746s)
$ tbb parallel_for page strided read random (x15 threads):                      157    MegaAccess/s (0.0636s)
$ tbb parallel_for page strided write random (x16 threads):                     134    MegaAccess/s (0.0744s)
$ tbb parallel_for page strided read random (x16 threads):                      156    MegaAccess/s (0.0639s)
$ std allocate 1:                                                               21.8   MegaAllocations/s (1.47 s)
$ std deallocate 1:                                                             41.2   MegaDeallocations/s (0.777s)
$ std allocate 4k:                                                              1.26   MegaAllocations/s (0.396s)
$ std deallocate 4k:                                                            2.93   MegaDeallocations/s (0.171s)
$ tbb parallel_for std allocate 1 (x1 threads):                                 20.6   MegaAllocations/s (1.56 s)
$ tbb parallel_for std deallocate 1 (x1 threads):                               41.2   MegaDeallocations/s (0.776s)
$ tbb parallel_for std allocate 1 (x2 threads):                                 30.8   MegaAllocations/s (1.04 s)
$ tbb parallel_for std deallocate 1 (x2 threads):                               21     MegaDeallocations/s (1.52 s)
$ tbb parallel_for std allocate 1 (x3 threads):                                 11.6   MegaAllocations/s (2.76 s)
$ tbb parallel_for std deallocate 1 (x3 threads):                               11.4   MegaDeallocations/s (2.8  s)
$ tbb parallel_for std allocate 1 (x4 threads):                                 28.7   MegaAllocations/s (1.11 s)
$ tbb parallel_for std deallocate 1 (x4 threads):                               16     MegaDeallocations/s (2    s)
$ tbb parallel_for std allocate 1 (x5 threads):                                 47.1   MegaAllocations/s (0.679s)
$ tbb parallel_for std deallocate 1 (x5 threads):                               8.24   MegaDeallocations/s (3.88 s)
$ tbb parallel_for std allocate 1 (x6 threads):                                 35.8   MegaAllocations/s (0.893s)
$ tbb parallel_for std deallocate 1 (x6 threads):                               12     MegaDeallocations/s (2.67 s)
$ tbb parallel_for std allocate 1 (x7 threads):                                 46.9   MegaAllocations/s (0.682s)
$ tbb parallel_for std deallocate 1 (x7 threads):                               15.3   MegaDeallocations/s (2.09 s)
$ tbb parallel_for std allocate 1 (x8 threads):                                 57.7   MegaAllocations/s (0.554s)
$ tbb parallel_for std deallocate 1 (x8 threads):                               12.5   MegaDeallocations/s (2.57 s)
$ tbb parallel_for std allocate 1 (x9 threads):                                 58     MegaAllocations/s (0.551s)
$ tbb parallel_for std deallocate 1 (x9 threads):                               19.3   MegaDeallocations/s (1.66 s)
$ tbb parallel_for std allocate 1 (x10 threads):                                59.3   MegaAllocations/s (0.54 s)
$ tbb parallel_for std deallocate 1 (x10 threads):                              26.5   MegaDeallocations/s (1.21 s)
$ tbb parallel_for std allocate 1 (x11 threads):                                63.1   MegaAllocations/s (0.507s)
$ tbb parallel_for std deallocate 1 (x11 threads):                              25.7   MegaDeallocations/s (1.25 s)
$ tbb parallel_for std allocate 1 (x12 threads):                                64.1   MegaAllocations/s (0.499s)
$ tbb parallel_for std deallocate 1 (x12 threads):                              31.4   MegaDeallocations/s (1.02 s)
$ tbb parallel_for std allocate 1 (x13 threads):                                77.9   MegaAllocations/s (0.411s)
$ tbb parallel_for std deallocate 1 (x13 threads):                              23.7   MegaDeallocations/s (1.35 s)
$ tbb parallel_for std allocate 1 (x14 threads):                                76.1   MegaAllocations/s (0.421s)
$ tbb parallel_for std deallocate 1 (x14 threads):                              23     MegaDeallocations/s (1.39 s)
$ tbb parallel_for std allocate 1 (x15 threads):                                81.2   MegaAllocations/s (0.394s)
$ tbb parallel_for std deallocate 1 (x15 threads):                              34.8   MegaDeallocations/s (0.921s)
$ tbb parallel_for std allocate 1 (x16 threads):                                81.7   MegaAllocations/s (0.392s)
$ tbb parallel_for std deallocate 1 (x16 threads):                              26.2   MegaDeallocations/s (1.22 s)
$ tbb parallel_for std allocate 4k (x1 threads):                                0.747  MegaAllocations/s (0.67 s)
$ tbb parallel_for std deallocate 4k (x1 threads):                              3.02   MegaDeallocations/s (0.165s)
$ tbb parallel_for std allocate 4k (x2 threads):                                0.0592 MegaAllocations/s (8.45 s)
$ tbb parallel_for std deallocate 4k (x2 threads):                              3.32   MegaDeallocations/s (0.151s)
$ tbb parallel_for std allocate 4k (x3 threads):                                0.0987 MegaAllocations/s (5.06 s)
$ tbb parallel_for std deallocate 4k (x3 threads):                              3.59   MegaDeallocations/s (0.139s)
$ tbb parallel_for std allocate 4k (x4 threads):                                0.0845 MegaAllocations/s (5.92 s)
$ tbb parallel_for std deallocate 4k (x4 threads):                              4.41   MegaDeallocations/s (0.113s)
$ tbb parallel_for std allocate 4k (x5 threads):                                0.0735 MegaAllocations/s (6.8  s)
$ tbb parallel_for std deallocate 4k (x5 threads):                              3.37   MegaDeallocations/s (0.148s)
$ tbb parallel_for std allocate 4k (x6 threads):                                0.115  MegaAllocations/s (4.36 s)
$ tbb parallel_for std deallocate 4k (x6 threads):                              5.01   MegaDeallocations/s (0.0997s)
$ tbb parallel_for std allocate 4k (x7 threads):                                0.114  MegaAllocations/s (4.38 s)
$ tbb parallel_for std deallocate 4k (x7 threads):                              4.59   MegaDeallocations/s (0.109s)
$ tbb parallel_for std allocate 4k (x8 threads):                                0.109  MegaAllocations/s (4.59 s)
$ tbb parallel_for std deallocate 4k (x8 threads):                              3.93   MegaDeallocations/s (0.127s)
$ tbb parallel_for std allocate 4k (x9 threads):                                0.112  MegaAllocations/s (4.48 s)
$ tbb parallel_for std deallocate 4k (x9 threads):                              4.91   MegaDeallocations/s (0.102s)
$ tbb parallel_for std allocate 4k (x10 threads):                               0.131  MegaAllocations/s (3.83 s)
$ tbb parallel_for std deallocate 4k (x10 threads):                             3.28   MegaDeallocations/s (0.153s)
$ tbb parallel_for std allocate 4k (x11 threads):                               0.104  MegaAllocations/s (4.79 s)
$ tbb parallel_for std deallocate 4k (x11 threads):                             3.61   MegaDeallocations/s (0.139s)
$ tbb parallel_for std allocate 4k (x12 threads):                               0.21   MegaAllocations/s (2.38 s)
$ tbb parallel_for std deallocate 4k (x12 threads):                             5.42   MegaDeallocations/s (0.0923s)
$ tbb parallel_for std allocate 4k (x13 threads):                               0.323  MegaAllocations/s (1.55 s)
$ tbb parallel_for std deallocate 4k (x13 threads):                             3.51   MegaDeallocations/s (0.142s)
$ tbb parallel_for std allocate 4k (x14 threads):                               0.301  MegaAllocations/s (1.66 s)
$ tbb parallel_for std deallocate 4k (x14 threads):                             3.78   MegaDeallocations/s (0.132s)
$ tbb parallel_for std allocate 4k (x15 threads):                               0.277  MegaAllocations/s (1.8  s)
$ tbb parallel_for std deallocate 4k (x15 threads):                             3.71   MegaDeallocations/s (0.135s)
$ tbb parallel_for std allocate 4k (x16 threads):                               0.271  MegaAllocations/s (1.84 s)
$ tbb parallel_for std deallocate 4k (x16 threads):                             3.53   MegaDeallocations/s (0.142s)
$ tbb scalable pool allocate 1:                                                 48.3   MegaAllocations/s (0.662s)
$ tbb scalable pool deallocate 1:                                               36.5   MegaDeallocations/s (0.877s)
$ tbb scalable pool allocate 4k:                                                1.74   MegaAllocations/s (0.287s)
$ tbb scalable pool deallocate 4k:                                              0.646  MegaDeallocations/s (0.774s)
$ tbb parallel_for tbb scalable pool allocate 1 (x1 threads):                   47.8   MegaAllocations/s (0.67 s)
$ tbb parallel_for tbb scalable pool deallocate 1 (x1 threads):                 36.1   MegaDeallocations/s (0.888s)
$ tbb parallel_for tbb scalable pool allocate 1 (x2 threads):                   97     MegaAllocations/s (0.33 s)
$ tbb parallel_for tbb scalable pool deallocate 1 (x2 threads):                 70     MegaDeallocations/s (0.457s)
$ tbb parallel_for tbb scalable pool allocate 1 (x3 threads):                   143    MegaAllocations/s (0.224s)
$ tbb parallel_for tbb scalable pool deallocate 1 (x3 threads):                 83.6   MegaDeallocations/s (0.383s)
$ tbb parallel_for tbb scalable pool allocate 1 (x4 threads):                   191    MegaAllocations/s (0.167s)
$ tbb parallel_for tbb scalable pool deallocate 1 (x4 threads):                 105    MegaDeallocations/s (0.304s)
$ tbb parallel_for tbb scalable pool allocate 1 (x5 threads):                   238    MegaAllocations/s (0.134s)
$ tbb parallel_for tbb scalable pool deallocate 1 (x5 threads):                 131    MegaDeallocations/s (0.245s)
$ tbb parallel_for tbb scalable pool allocate 1 (x6 threads):                   245    MegaAllocations/s (0.131s)
$ tbb parallel_for tbb scalable pool deallocate 1 (x6 threads):                 146    MegaDeallocations/s (0.22 s)
$ tbb parallel_for tbb scalable pool allocate 1 (x7 threads):                   281    MegaAllocations/s (0.114s)
$ tbb parallel_for tbb scalable pool deallocate 1 (x7 threads):                 148    MegaDeallocations/s (0.216s)
$ tbb parallel_for tbb scalable pool allocate 1 (x8 threads):                   371    MegaAllocations/s (0.0864s)
$ tbb parallel_for tbb scalable pool deallocate 1 (x8 threads):                 192    MegaDeallocations/s (0.166s)
$ tbb parallel_for tbb scalable pool allocate 1 (x9 threads):                   316    MegaAllocations/s (0.101s)
$ tbb parallel_for tbb scalable pool deallocate 1 (x9 threads):                 196    MegaDeallocations/s (0.164s)
$ tbb parallel_for tbb scalable pool allocate 1 (x10 threads):                  355    MegaAllocations/s (0.0901s)
$ tbb parallel_for tbb scalable pool deallocate 1 (x10 threads):                200    MegaDeallocations/s (0.16 s)
$ tbb parallel_for tbb scalable pool allocate 1 (x11 threads):                  374    MegaAllocations/s (0.0856s)
$ tbb parallel_for tbb scalable pool deallocate 1 (x11 threads):                164    MegaDeallocations/s (0.196s)
$ tbb parallel_for tbb scalable pool allocate 1 (x12 threads):                  338    MegaAllocations/s (0.0948s)
$ tbb parallel_for tbb scalable pool deallocate 1 (x12 threads):                161    MegaDeallocations/s (0.199s)
$ tbb parallel_for tbb scalable pool allocate 1 (x13 threads):                  339    MegaAllocations/s (0.0943s)
$ tbb parallel_for tbb scalable pool deallocate 1 (x13 threads):                89.9   MegaDeallocations/s (0.356s)
$ tbb parallel_for tbb scalable pool allocate 1 (x14 threads):                  407    MegaAllocations/s (0.0785s)
$ tbb parallel_for tbb scalable pool deallocate 1 (x14 threads):                212    MegaDeallocations/s (0.151s)
$ tbb parallel_for tbb scalable pool allocate 1 (x15 threads):                  403    MegaAllocations/s (0.0794s)
$ tbb parallel_for tbb scalable pool deallocate 1 (x15 threads):                197    MegaDeallocations/s (0.162s)
$ tbb parallel_for tbb scalable pool allocate 1 (x16 threads):                  407    MegaAllocations/s (0.0787s)
$ tbb parallel_for tbb scalable pool deallocate 1 (x16 threads):                196    MegaDeallocations/s (0.163s)
$ tbb parallel_for tbb scalable pool allocate 4k (x1 threads):                  1.74   MegaAllocations/s (0.287s)
$ tbb parallel_for tbb scalable pool deallocate 4k (x1 threads):                0.642  MegaDeallocations/s (0.779s)
$ tbb parallel_for tbb scalable pool allocate 4k (x2 threads):                  2.1    MegaAllocations/s (0.238s)
$ tbb parallel_for tbb scalable pool deallocate 4k (x2 threads):                0.311  MegaDeallocations/s (1.61 s)
$ tbb parallel_for tbb scalable pool allocate 4k (x3 threads):                  2.76   MegaAllocations/s (0.181s)
$ tbb parallel_for tbb scalable pool deallocate 4k (x3 threads):                0.402  MegaDeallocations/s (1.24 s)
$ tbb parallel_for tbb scalable pool allocate 4k (x4 threads):                  2.84   MegaAllocations/s (0.176s)
$ tbb parallel_for tbb scalable pool deallocate 4k (x4 threads):                0.426  MegaDeallocations/s (1.17 s)
$ tbb parallel_for tbb scalable pool allocate 4k (x5 threads):                  3.05   MegaAllocations/s (0.164s)
$ tbb parallel_for tbb scalable pool deallocate 4k (x5 threads):                0.375  MegaDeallocations/s (1.33 s)
$ tbb parallel_for tbb scalable pool allocate 4k (x6 threads):                  2.96   MegaAllocations/s (0.169s)
$ tbb parallel_for tbb scalable pool deallocate 4k (x6 threads):                0.334  MegaDeallocations/s (1.5  s)
$ tbb parallel_for tbb scalable pool allocate 4k (x7 threads):                  2.96   MegaAllocations/s (0.169s)
$ tbb parallel_for tbb scalable pool deallocate 4k (x7 threads):                0.309  MegaDeallocations/s (1.62 s)
$ tbb parallel_for tbb scalable pool allocate 4k (x8 threads):                  3.06   MegaAllocations/s (0.163s)
$ tbb parallel_for tbb scalable pool deallocate 4k (x8 threads):                0.286  MegaDeallocations/s (1.75 s)
$ tbb parallel_for tbb scalable pool allocate 4k (x9 threads):                  2.97   MegaAllocations/s (0.168s)
$ tbb parallel_for tbb scalable pool deallocate 4k (x9 threads):                0.281  MegaDeallocations/s (1.78 s)
$ tbb parallel_for tbb scalable pool allocate 4k (x10 threads):                 3.06   MegaAllocations/s (0.163s)
$ tbb parallel_for tbb scalable pool deallocate 4k (x10 threads):               0.282  MegaDeallocations/s (1.78 s)
$ tbb parallel_for tbb scalable pool allocate 4k (x11 threads):                 2.99   MegaAllocations/s (0.167s)
$ tbb parallel_for tbb scalable pool deallocate 4k (x11 threads):               0.258  MegaDeallocations/s (1.94 s)
$ tbb parallel_for tbb scalable pool allocate 4k (x12 threads):                 2.99   MegaAllocations/s (0.167s)
$ tbb parallel_for tbb scalable pool deallocate 4k (x12 threads):               0.243  MegaDeallocations/s (2.06 s)
$ tbb parallel_for tbb scalable pool allocate 4k (x13 threads):                 2.97   MegaAllocations/s (0.168s)
$ tbb parallel_for tbb scalable pool deallocate 4k (x13 threads):               0.248  MegaDeallocations/s (2.01 s)
$ tbb parallel_for tbb scalable pool allocate 4k (x14 threads):                 2.96   MegaAllocations/s (0.169s)
$ tbb parallel_for tbb scalable pool deallocate 4k (x14 threads):               0.24   MegaDeallocations/s (2.08 s)
$ tbb parallel_for tbb scalable pool allocate 4k (x15 threads):                 3.34   MegaAllocations/s (0.15 s)
$ tbb parallel_for tbb scalable pool deallocate 4k (x15 threads):               0.173  MegaDeallocations/s (2.9  s)
$ tbb parallel_for tbb scalable pool allocate 4k (x16 threads):                 3      MegaAllocations/s (0.166s)
$ tbb parallel_for tbb scalable pool deallocate 4k (x16 threads):               0.21   MegaDeallocations/s (2.38 s)
$ tbb scalable allocate 1:                                                      42.5   MegaAllocations/s (0.753s)
$ tbb scalable deallocate 1:                                                    36     MegaDeallocations/s (0.888s)
$ tbb scalable allocate 4k:                                                     1.68   MegaAllocations/s (0.297s)
$ tbb scalable deallocate 4k:                                                   0.644  MegaDeallocations/s (0.777s)
$ tbb parallel_for tbb scalable allocate 1 (x1 threads):                        41.3   MegaAllocations/s (0.776s)
$ tbb parallel_for tbb scalable deallocate 1 (x1 threads):                      36     MegaDeallocations/s (0.889s)
$ tbb parallel_for tbb scalable allocate 1 (x2 threads):                        81.1   MegaAllocations/s (0.394s)
$ tbb parallel_for tbb scalable deallocate 1 (x2 threads):                      52.7   MegaDeallocations/s (0.608s)
$ tbb parallel_for tbb scalable allocate 1 (x3 threads):                        121    MegaAllocations/s (0.264s)
$ tbb parallel_for tbb scalable deallocate 1 (x3 threads):                      69.6   MegaDeallocations/s (0.46 s)
$ tbb parallel_for tbb scalable allocate 1 (x4 threads):                        160    MegaAllocations/s (0.199s)
$ tbb parallel_for tbb scalable deallocate 1 (x4 threads):                      92.6   MegaDeallocations/s (0.346s)
$ tbb parallel_for tbb scalable allocate 1 (x5 threads):                        198    MegaAllocations/s (0.162s)
$ tbb parallel_for tbb scalable deallocate 1 (x5 threads):                      170    MegaDeallocations/s (0.188s)
$ tbb parallel_for tbb scalable allocate 1 (x6 threads):                        238    MegaAllocations/s (0.135s)
$ tbb parallel_for tbb scalable deallocate 1 (x6 threads):                      185    MegaDeallocations/s (0.173s)
$ tbb parallel_for tbb scalable allocate 1 (x7 threads):                        237    MegaAllocations/s (0.135s)
$ tbb parallel_for tbb scalable deallocate 1 (x7 threads):                      203    MegaDeallocations/s (0.157s)
$ tbb parallel_for tbb scalable allocate 1 (x8 threads):                        307    MegaAllocations/s (0.104s)
$ tbb parallel_for tbb scalable deallocate 1 (x8 threads):                      249    MegaDeallocations/s (0.128s)
$ tbb parallel_for tbb scalable allocate 1 (x9 threads):                        308    MegaAllocations/s (0.104s)
$ tbb parallel_for tbb scalable deallocate 1 (x9 threads):                      266    MegaDeallocations/s (0.12 s)
$ tbb parallel_for tbb scalable allocate 1 (x10 threads):                       312    MegaAllocations/s (0.103s)
$ tbb parallel_for tbb scalable deallocate 1 (x10 threads):                     271    MegaDeallocations/s (0.118s)
$ tbb parallel_for tbb scalable allocate 1 (x11 threads):                       323    MegaAllocations/s (0.0991s)
$ tbb parallel_for tbb scalable deallocate 1 (x11 threads):                     278    MegaDeallocations/s (0.115s)
$ tbb parallel_for tbb scalable allocate 1 (x12 threads):                       323    MegaAllocations/s (0.0989s)
$ tbb parallel_for tbb scalable deallocate 1 (x12 threads):                     282    MegaDeallocations/s (0.114s)
$ tbb parallel_for tbb scalable allocate 1 (x13 threads):                       329    MegaAllocations/s (0.0973s)
$ tbb parallel_for tbb scalable deallocate 1 (x13 threads):                     277    MegaDeallocations/s (0.116s)
$ tbb parallel_for tbb scalable allocate 1 (x14 threads):                       330    MegaAllocations/s (0.0968s)
$ tbb parallel_for tbb scalable deallocate 1 (x14 threads):                     285    MegaDeallocations/s (0.112s)
$ tbb parallel_for tbb scalable allocate 1 (x15 threads):                       333    MegaAllocations/s (0.0961s)
$ tbb parallel_for tbb scalable deallocate 1 (x15 threads):                     281    MegaDeallocations/s (0.114s)
$ tbb parallel_for tbb scalable allocate 1 (x16 threads):                       331    MegaAllocations/s (0.0968s)
$ tbb parallel_for tbb scalable deallocate 1 (x16 threads):                     282    MegaDeallocations/s (0.113s)
$ tbb parallel_for tbb scalable allocate 4k (x1 threads):                       1.67   MegaAllocations/s (0.299s)
$ tbb parallel_for tbb scalable deallocate 4k (x1 threads):                     0.646  MegaDeallocations/s (0.774s)
$ tbb parallel_for tbb scalable allocate 4k (x2 threads):                       1.93   MegaAllocations/s (0.259s)
$ tbb parallel_for tbb scalable deallocate 4k (x2 threads):                     0.242  MegaDeallocations/s (2.07 s)
$ tbb parallel_for tbb scalable allocate 4k (x3 threads):                       3.07   MegaAllocations/s (0.163s)
$ tbb parallel_for tbb scalable deallocate 4k (x3 threads):                     0.388  MegaDeallocations/s (1.29 s)
$ tbb parallel_for tbb scalable allocate 4k (x4 threads):                       3.69   MegaAllocations/s (0.136s)
$ tbb parallel_for tbb scalable deallocate 4k (x4 threads):                     0.529  MegaDeallocations/s (0.945s)
$ tbb parallel_for tbb scalable allocate 4k (x5 threads):                       8.02   MegaAllocations/s (0.0623s)
$ tbb parallel_for tbb scalable deallocate 4k (x5 threads):                     7.23   MegaDeallocations/s (0.0692s)
$ tbb parallel_for tbb scalable allocate 4k (x6 threads):                       6.33   MegaAllocations/s (0.0789s)
$ tbb parallel_for tbb scalable deallocate 4k (x6 threads):                     11.6   MegaDeallocations/s (0.0429s)
$ tbb parallel_for tbb scalable allocate 4k (x7 threads):                       6.61   MegaAllocations/s (0.0756s)
$ tbb parallel_for tbb scalable deallocate 4k (x7 threads):                     7.12   MegaDeallocations/s (0.0702s)
$ tbb parallel_for tbb scalable allocate 4k (x8 threads):                       6.45   MegaAllocations/s (0.0775s)
$ tbb parallel_for tbb scalable deallocate 4k (x8 threads):                     3.24   MegaDeallocations/s (0.154s)
$ tbb parallel_for tbb scalable allocate 4k (x9 threads):                       5.9    MegaAllocations/s (0.0847s)
$ tbb parallel_for tbb scalable deallocate 4k (x9 threads):                     17.7   MegaDeallocations/s (0.0282s)
$ tbb parallel_for tbb scalable allocate 4k (x10 threads):                      5.6    MegaAllocations/s (0.0893s)
$ tbb parallel_for tbb scalable deallocate 4k (x10 threads):                    11.9   MegaDeallocations/s (0.0419s)
$ tbb parallel_for tbb scalable allocate 4k (x11 threads):                      5.99   MegaAllocations/s (0.0834s)
$ tbb parallel_for tbb scalable deallocate 4k (x11 threads):                    11.6   MegaDeallocations/s (0.0432s)
$ tbb parallel_for tbb scalable allocate 4k (x12 threads):                      6.04   MegaAllocations/s (0.0828s)
$ tbb parallel_for tbb scalable deallocate 4k (x12 threads):                    8.92   MegaDeallocations/s (0.056s)
$ tbb parallel_for tbb scalable allocate 4k (x13 threads):                      23.9   MegaAllocations/s (0.0209s)
$ tbb parallel_for tbb scalable deallocate 4k (x13 threads):                    2.29   MegaDeallocations/s (0.218s)
$ tbb parallel_for tbb scalable allocate 4k (x14 threads):                      5.83   MegaAllocations/s (0.0858s)
$ tbb parallel_for tbb scalable deallocate 4k (x14 threads):                    39.2   MegaDeallocations/s (0.0128s)
$ tbb parallel_for tbb scalable allocate 4k (x15 threads):                      27.1   MegaAllocations/s (0.0185s)
$ tbb parallel_for tbb scalable deallocate 4k (x15 threads):                    3.02   MegaDeallocations/s (0.165s)
$ tbb parallel_for tbb scalable allocate 4k (x16 threads):                      5.88   MegaAllocations/s (0.085s)
$ tbb parallel_for tbb scalable deallocate 4k (x16 threads):                    14.7   MegaDeallocations/s (0.034s)
