Running 17 test cases...
$ hailstone numbers:                                                            0.367  GigaIterations/s (0.68 s)
$ tbb parallel_reduce hailstone numbers (x1 threads):                           0.369  GigaIterations/s (0.678s)
$ tbb parallel_reduce hailstone numbers (x2 threads):                           0.737  GigaIterations/s (0.339s)
$ tbb parallel_reduce hailstone numbers (x3 threads):                           1.1    GigaIterations/s (0.228s)
$ tbb parallel_reduce hailstone numbers (x4 threads):                           1.47   GigaIterations/s (0.17 s)
$ tbb parallel_reduce hailstone numbers (x5 threads):                           1.81   GigaIterations/s (0.138s)
$ tbb parallel_reduce hailstone numbers (x6 threads):                           2.19   GigaIterations/s (0.114s)
$ tbb parallel_reduce hailstone numbers (x7 threads):                           2.48   GigaIterations/s (0.101s)
$ tbb parallel_reduce hailstone numbers (x8 threads):                           2.92   GigaIterations/s (0.0857s)
$ memset:                                                                       2.86   GByte/s (1.4  s)
$ memsearch:                                                                    4.07   GByte/s (0.984s)
$ memcpy:                                                                       2.25   GByte/s (0.889s)
$ tbb parallel_for memset (x1 threads):                                         2.89   GByte/s (1.39 s)
$ tbb parallel_for memset (x2 threads):                                         5.64   GByte/s (0.709s)
$ tbb parallel_for memset (x3 threads):                                         5.26   GByte/s (0.761s)
$ tbb parallel_for memset (x4 threads):                                         5.73   GByte/s (0.698s)
$ tbb parallel_for memset (x5 threads):                                         6.1    GByte/s (0.655s)
$ tbb parallel_for memset (x6 threads):                                         6.13   GByte/s (0.653s)
$ tbb parallel_for memset (x7 threads):                                         6.12   GByte/s (0.654s)
$ tbb parallel_for memset (x8 threads):                                         5.86   GByte/s (0.682s)
$ tbb parallel_reduce memsearch (x1 threads):                                   3.91   GByte/s (1.02 s)
$ tbb parallel_reduce memsearch (x2 threads):                                   6.84   GByte/s (0.585s)
$ tbb parallel_reduce memsearch (x3 threads):                                   5.62   GByte/s (0.712s)
$ tbb parallel_reduce memsearch (x4 threads):                                   7.22   GByte/s (0.554s)
$ tbb parallel_reduce memsearch (x5 threads):                                   6.47   GByte/s (0.618s)
$ tbb parallel_reduce memsearch (x6 threads):                                   7.49   GByte/s (0.534s)
$ tbb parallel_reduce memsearch (x7 threads):                                   7.49   GByte/s (0.534s)
$ tbb parallel_reduce memsearch (x8 threads):                                   7.41   GByte/s (0.54 s)
$ tbb parallel_for memcpy (x1 threads):                                         2.37   GByte/s (0.842s)
$ tbb parallel_for memcpy (x2 threads):                                         3.45   GByte/s (0.579s)
$ tbb parallel_for memcpy (x3 threads):                                         3.31   GByte/s (0.605s)
$ tbb parallel_for memcpy (x4 threads):                                         3.44   GByte/s (0.582s)
$ tbb parallel_for memcpy (x5 threads):                                         3.07   GByte/s (0.651s)
$ tbb parallel_for memcpy (x6 threads):                                         2.94   GByte/s (0.68 s)
$ tbb parallel_for memcpy (x7 threads):                                         3.11   GByte/s (0.643s)
$ tbb parallel_for memcpy (x8 threads):                                         3.15   GByte/s (0.635s)
$ page strided write sequential:                                                30.1   MegaAccess/s (0.332s)
$ page strided read sequential:                                                 42.6   MegaAccess/s (0.235s)
$ page strided write random:                                                    12.4   MegaAccess/s (0.804s)
$ page strided read random:                                                     12.8   MegaAccess/s (0.784s)
$ tbb parallel_for page strided write sequential (x1 threads):                  30.2   MegaAccess/s (0.331s)
$ tbb parallel_reduce page strided read sequential (x1 threads):                44.5   MegaAccess/s (0.225s)
$ tbb parallel_for page strided write sequential (x2 threads):                  43.3   MegaAccess/s (0.231s)
$ tbb parallel_reduce page strided read sequential (x2 threads):                75.2   MegaAccess/s (0.133s)
$ tbb parallel_for page strided write sequential (x3 threads):                  44.8   MegaAccess/s (0.223s)
$ tbb parallel_reduce page strided read sequential (x3 threads):                98.9   MegaAccess/s (0.101s)
$ tbb parallel_for page strided write sequential (x4 threads):                  44     MegaAccess/s (0.227s)
$ tbb parallel_reduce page strided read sequential (x4 threads):                99.5   MegaAccess/s (0.101s)
$ tbb parallel_for page strided write sequential (x5 threads):                  44.7   MegaAccess/s (0.224s)
$ tbb parallel_reduce page strided read sequential (x5 threads):                98.4   MegaAccess/s (0.102s)
$ tbb parallel_for page strided write sequential (x6 threads):                  45.1   MegaAccess/s (0.222s)
$ tbb parallel_reduce page strided read sequential (x6 threads):                97.8   MegaAccess/s (0.102s)
$ tbb parallel_for page strided write sequential (x7 threads):                  45.7   MegaAccess/s (0.219s)
$ tbb parallel_reduce page strided read sequential (x7 threads):                101    MegaAccess/s (0.0989s)
$ tbb parallel_for page strided write sequential (x8 threads):                  44.5   MegaAccess/s (0.225s)
$ tbb parallel_reduce page strided read sequential (x8 threads):                98.6   MegaAccess/s (0.101s)
$ tbb parallel_for page strided write random (x1 threads):                      12.6   MegaAccess/s (0.791s)
$ tbb parallel_for page strided read random (x1 threads):                       13     MegaAccess/s (0.772s)
$ tbb parallel_for page strided write random (x2 threads):                      25.2   MegaAccess/s (0.397s)
$ tbb parallel_for page strided read random (x2 threads):                       26.9   MegaAccess/s (0.372s)
$ tbb parallel_for page strided write random (x3 threads):                      34.2   MegaAccess/s (0.292s)
$ tbb parallel_for page strided read random (x3 threads):                       38.8   MegaAccess/s (0.258s)
$ tbb parallel_for page strided write random (x4 threads):                      38.6   MegaAccess/s (0.259s)
$ tbb parallel_for page strided read random (x4 threads):                       49.9   MegaAccess/s (0.2  s)
$ tbb parallel_for page strided write random (x5 threads):                      40.6   MegaAccess/s (0.246s)
$ tbb parallel_for page strided read random (x5 threads):                       60     MegaAccess/s (0.167s)
$ tbb parallel_for page strided write random (x6 threads):                      40.8   MegaAccess/s (0.245s)
$ tbb parallel_for page strided read random (x6 threads):                       65.5   MegaAccess/s (0.153s)
$ tbb parallel_for page strided write random (x7 threads):                      41.6   MegaAccess/s (0.24 s)
$ tbb parallel_for page strided read random (x7 threads):                       73.8   MegaAccess/s (0.135s)
$ tbb parallel_for page strided write random (x8 threads):                      41.9   MegaAccess/s (0.239s)
$ tbb parallel_for page strided read random (x8 threads):                       58.4   MegaAccess/s (0.171s)
$ std allocate 1:                                                               12.2   MegaAllocations/s (2.62 s)
$ std deallocate 1:                                                             30.2   MegaDeallocations/s (1.06 s)
$ std allocate 4k:                                                              0.438  MegaAllocations/s (1.14 s)
$ std deallocate 4k:                                                            0.769  MegaDeallocations/s (0.65 s)
$ tbb parallel_for std allocate 1 (x1 threads):                                 11.8   MegaAllocations/s (2.71 s)
$ tbb parallel_for std deallocate 1 (x1 threads):                               29.8   MegaDeallocations/s (1.07 s)
$ tbb parallel_for std allocate 1 (x2 threads):                                 26.8   MegaAllocations/s (1.2  s)
$ tbb parallel_for std deallocate 1 (x2 threads):                               11.9   MegaDeallocations/s (2.7  s)
$ tbb parallel_for std allocate 1 (x3 threads):                                 11.6   MegaAllocations/s (2.77 s)
$ tbb parallel_for std deallocate 1 (x3 threads):                               9.18   MegaDeallocations/s (3.48 s)
$ tbb parallel_for std allocate 1 (x4 threads):                                 33.8   MegaAllocations/s (0.947s)
$ tbb parallel_for std deallocate 1 (x4 threads):                               7.62   MegaDeallocations/s (4.2  s)
$ tbb parallel_for std allocate 1 (x5 threads):                                 43.5   MegaAllocations/s (0.736s)
$ tbb parallel_for std deallocate 1 (x5 threads):                               8.73   MegaDeallocations/s (3.67 s)
$ tbb parallel_for std allocate 1 (x6 threads):                                 38.5   MegaAllocations/s (0.832s)
$ tbb parallel_for std deallocate 1 (x6 threads):                               11.1   MegaDeallocations/s (2.89 s)
$ tbb parallel_for std allocate 1 (x7 threads):                                 51.8   MegaAllocations/s (0.618s)
$ tbb parallel_for std deallocate 1 (x7 threads):                               16.7   MegaDeallocations/s (1.91 s)
$ tbb parallel_for std allocate 1 (x8 threads):                                 63.7   MegaAllocations/s (0.503s)
$ tbb parallel_for std deallocate 1 (x8 threads):                               21.4   MegaDeallocations/s (1.49 s)
$ tbb parallel_for std allocate 4k (x1 threads):                                0.241  MegaAllocations/s (2.07 s)
$ tbb parallel_for std deallocate 4k (x1 threads):                              0.784  MegaDeallocations/s (0.637s)
$ tbb parallel_for std allocate 4k (x2 threads):                                0.0884 MegaAllocations/s (5.66 s)
$ tbb parallel_for std deallocate 4k (x2 threads):                              0.943  MegaDeallocations/s (0.53 s)
$ tbb parallel_for std allocate 4k (x3 threads):                                0.101  MegaAllocations/s (4.96 s)
$ tbb parallel_for std deallocate 4k (x3 threads):                              1.14   MegaDeallocations/s (0.438s)
$ tbb parallel_for std allocate 4k (x4 threads):                                0.103  MegaAllocations/s (4.85 s)
$ tbb parallel_for std deallocate 4k (x4 threads):                              1.22   MegaDeallocations/s (0.411s)
$ tbb parallel_for std allocate 4k (x5 threads):                                0.11   MegaAllocations/s (4.55 s)
$ tbb parallel_for std deallocate 4k (x5 threads):                              1.37   MegaDeallocations/s (0.364s)
$ tbb parallel_for std allocate 4k (x6 threads):                                0.108  MegaAllocations/s (4.63 s)
$ tbb parallel_for std deallocate 4k (x6 threads):                              1.35   MegaDeallocations/s (0.37 s)
$ tbb parallel_for std allocate 4k (x7 threads):                                0.115  MegaAllocations/s (4.33 s)
$ tbb parallel_for std deallocate 4k (x7 threads):                              1.69   MegaDeallocations/s (0.296s)
$ tbb parallel_for std allocate 4k (x8 threads):                                0.14   MegaAllocations/s (3.58 s)
$ tbb parallel_for std deallocate 4k (x8 threads):                              1.5    MegaDeallocations/s (0.333s)
$ tbb scalable pool allocate 1:                                                 34.5   MegaAllocations/s (0.929s)
$ tbb scalable pool deallocate 1:                                               22.7   MegaDeallocations/s (1.41 s)
$ tbb scalable pool allocate 4k:                                                0.59   MegaAllocations/s (0.847s)
$ tbb scalable pool deallocate 4k:                                              0.154  MegaDeallocations/s (3.25 s)
$ tbb parallel_for tbb scalable pool allocate 1 (x1 threads):                   34.1   MegaAllocations/s (0.938s)
$ tbb parallel_for tbb scalable pool deallocate 1 (x1 threads):                 22.5   MegaDeallocations/s (1.42 s)
$ tbb parallel_for tbb scalable pool allocate 1 (x2 threads):                   69.7   MegaAllocations/s (0.459s)
$ tbb parallel_for tbb scalable pool deallocate 1 (x2 threads):                 47.8   MegaDeallocations/s (0.67 s)
$ tbb parallel_for tbb scalable pool allocate 1 (x3 threads):                   109    MegaAllocations/s (0.294s)
$ tbb parallel_for tbb scalable pool deallocate 1 (x3 threads):                 70.9   MegaDeallocations/s (0.451s)
$ tbb parallel_for tbb scalable pool allocate 1 (x4 threads):                   140    MegaAllocations/s (0.229s)
$ tbb parallel_for tbb scalable pool deallocate 1 (x4 threads):                 85.6   MegaDeallocations/s (0.374s)
$ tbb parallel_for tbb scalable pool allocate 1 (x5 threads):                   178    MegaAllocations/s (0.179s)
$ tbb parallel_for tbb scalable pool deallocate 1 (x5 threads):                 113    MegaDeallocations/s (0.283s)
$ tbb parallel_for tbb scalable pool allocate 1 (x6 threads):                   215    MegaAllocations/s (0.149s)
$ tbb parallel_for tbb scalable pool deallocate 1 (x6 threads):                 138    MegaDeallocations/s (0.232s)
$ tbb parallel_for tbb scalable pool allocate 1 (x7 threads):                   246    MegaAllocations/s (0.13 s)
$ tbb parallel_for tbb scalable pool deallocate 1 (x7 threads):                 159    MegaDeallocations/s (0.201s)
$ tbb parallel_for tbb scalable pool allocate 1 (x8 threads):                   243    MegaAllocations/s (0.131s)
$ tbb parallel_for tbb scalable pool deallocate 1 (x8 threads):                 145    MegaDeallocations/s (0.221s)
$ tbb parallel_for tbb scalable pool allocate 4k (x1 threads):                  0.592  MegaAllocations/s (0.845s)
$ tbb parallel_for tbb scalable pool deallocate 4k (x1 threads):                0.157  MegaDeallocations/s (3.19 s)
$ tbb parallel_for tbb scalable pool allocate 4k (x2 threads):                  0.955  MegaAllocations/s (0.523s)
$ tbb parallel_for tbb scalable pool deallocate 4k (x2 threads):                0.222  MegaDeallocations/s (2.26 s)
$ tbb parallel_for tbb scalable pool allocate 4k (x3 threads):                  1.15   MegaAllocations/s (0.435s)
$ tbb parallel_for tbb scalable pool deallocate 4k (x3 threads):                0.3    MegaDeallocations/s (1.66 s)
$ tbb parallel_for tbb scalable pool allocate 4k (x4 threads):                  1.39   MegaAllocations/s (0.36 s)
$ tbb parallel_for tbb scalable pool deallocate 4k (x4 threads):                0.358  MegaDeallocations/s (1.4  s)
$ tbb parallel_for tbb scalable pool allocate 4k (x5 threads):                  1.61   MegaAllocations/s (0.31 s)
$ tbb parallel_for tbb scalable pool deallocate 4k (x5 threads):                0.426  MegaDeallocations/s (1.17 s)
$ tbb parallel_for tbb scalable pool allocate 4k (x6 threads):                  1.88   MegaAllocations/s (0.266s)
$ tbb parallel_for tbb scalable pool deallocate 4k (x6 threads):                0.51   MegaDeallocations/s (0.98 s)
$ tbb parallel_for tbb scalable pool allocate 4k (x7 threads):                  2.02   MegaAllocations/s (0.248s)
$ tbb parallel_for tbb scalable pool deallocate 4k (x7 threads):                0.555  MegaDeallocations/s (0.901s)
$ tbb parallel_for tbb scalable pool allocate 4k (x8 threads):                  2.25   MegaAllocations/s (0.222s)
$ tbb parallel_for tbb scalable pool deallocate 4k (x8 threads):                0.676  MegaDeallocations/s (0.74 s)
$ tbb scalable allocate 1:                                                      30.2   MegaAllocations/s (1.06 s)
$ tbb scalable deallocate 1:                                                    21.5   MegaDeallocations/s (1.49 s)
$ tbb scalable allocate 4k:                                                     0.602  MegaAllocations/s (0.831s)
$ tbb scalable deallocate 4k:                                                   0.138  MegaDeallocations/s (3.64 s)
$ tbb parallel_for tbb scalable allocate 1 (x1 threads):                        30.7   MegaAllocations/s (1.04 s)
$ tbb parallel_for tbb scalable deallocate 1 (x1 threads):                      21.4   MegaDeallocations/s (1.49 s)
$ tbb parallel_for tbb scalable allocate 1 (x2 threads):                        59.2   MegaAllocations/s (0.54 s)
$ tbb parallel_for tbb scalable deallocate 1 (x2 threads):                      36.6   MegaDeallocations/s (0.874s)
$ tbb parallel_for tbb scalable allocate 1 (x3 threads):                        88     MegaAllocations/s (0.364s)
$ tbb parallel_for tbb scalable deallocate 1 (x3 threads):                      55.6   MegaDeallocations/s (0.576s)
$ tbb parallel_for tbb scalable allocate 1 (x4 threads):                        123    MegaAllocations/s (0.26 s)
$ tbb parallel_for tbb scalable deallocate 1 (x4 threads):                      93.8   MegaDeallocations/s (0.341s)
$ tbb parallel_for tbb scalable allocate 1 (x5 threads):                        146    MegaAllocations/s (0.219s)
$ tbb parallel_for tbb scalable deallocate 1 (x5 threads):                      131    MegaDeallocations/s (0.244s)
$ tbb parallel_for tbb scalable allocate 1 (x6 threads):                        173    MegaAllocations/s (0.185s)
$ tbb parallel_for tbb scalable deallocate 1 (x6 threads):                      148    MegaDeallocations/s (0.216s)
$ tbb parallel_for tbb scalable allocate 1 (x7 threads):                        195    MegaAllocations/s (0.164s)
$ tbb parallel_for tbb scalable deallocate 1 (x7 threads):                      173    MegaDeallocations/s (0.185s)
$ tbb parallel_for tbb scalable allocate 1 (x8 threads):                        212    MegaAllocations/s (0.151s)
$ tbb parallel_for tbb scalable deallocate 1 (x8 threads):                      192    MegaDeallocations/s (0.166s)
$ tbb parallel_for tbb scalable allocate 4k (x1 threads):                       0.596  MegaAllocations/s (0.838s)
$ tbb parallel_for tbb scalable deallocate 4k (x1 threads):                     0.139  MegaDeallocations/s (3.6  s)
$ tbb parallel_for tbb scalable allocate 4k (x2 threads):                       0.865  MegaAllocations/s (0.578s)
$ tbb parallel_for tbb scalable deallocate 4k (x2 threads):                     0.157  MegaDeallocations/s (3.18 s)
$ tbb parallel_for tbb scalable allocate 4k (x3 threads):                       1.16   MegaAllocations/s (0.433s)
$ tbb parallel_for tbb scalable deallocate 4k (x3 threads):                     0.267  MegaDeallocations/s (1.88 s)
$ tbb parallel_for tbb scalable allocate 4k (x4 threads):                       3.98   MegaAllocations/s (0.126s)
$ tbb parallel_for tbb scalable deallocate 4k (x4 threads):                     1.53   MegaDeallocations/s (0.327s)
$ tbb parallel_for tbb scalable allocate 4k (x5 threads):                       14     MegaAllocations/s (0.0358s)
$ tbb parallel_for tbb scalable deallocate 4k (x5 threads):                     8.07   MegaDeallocations/s (0.0619s)
$ tbb parallel_for tbb scalable allocate 4k (x6 threads):                       13.7   MegaAllocations/s (0.0365s)
$ tbb parallel_for tbb scalable deallocate 4k (x6 threads):                     16.6   MegaDeallocations/s (0.0302s)
$ tbb parallel_for tbb scalable allocate 4k (x7 threads):                       15.7   MegaAllocations/s (0.0318s)
$ tbb parallel_for tbb scalable deallocate 4k (x7 threads):                     7.33   MegaDeallocations/s (0.0682s)
$ tbb parallel_for tbb scalable allocate 4k (x8 threads):                       4.82   MegaAllocations/s (0.104s)
$ tbb parallel_for tbb scalable deallocate 4k (x8 threads):                     11.9   MegaDeallocations/s (0.0419s)
