Running 17 test cases...
$ hailstone numbers:                                                            0.575  GigaIterations/s (0.435s)
$ tbb parallel_reduce hailstone numbers (x1 threads):                           0.569  GigaIterations/s (0.439s)
$ tbb parallel_reduce hailstone numbers (x2 threads):                           1.14   GigaIterations/s (0.22 s)
$ tbb parallel_reduce hailstone numbers (x3 threads):                           1.69   GigaIterations/s (0.148s)
$ tbb parallel_reduce hailstone numbers (x4 threads):                           2.27   GigaIterations/s (0.11 s)
$ tbb parallel_reduce hailstone numbers (x5 threads):                           2.65   GigaIterations/s (0.0945s)
$ tbb parallel_reduce hailstone numbers (x6 threads):                           3      GigaIterations/s (0.0833s)
$ tbb parallel_reduce hailstone numbers (x7 threads):                           3.37   GigaIterations/s (0.0742s)
$ tbb parallel_reduce hailstone numbers (x8 threads):                           3.72   GigaIterations/s (0.0672s)
$ memset:                                                                       5.3    GByte/s (0.754s)
$ memsearch:                                                                    11.5   GByte/s (0.348s)
$ memcpy:                                                                       3.19   GByte/s (0.628s)
$ tbb parallel_for memset (x1 threads):                                         5.3    GByte/s (0.754s)
$ tbb parallel_for memset (x2 threads):                                         10.4   GByte/s (0.385s)
$ tbb parallel_for memset (x3 threads):                                         15.6   GByte/s (0.256s)
$ tbb parallel_for memset (x4 threads):                                         20.2   GByte/s (0.198s)
$ tbb parallel_for memset (x5 threads):                                         20.9   GByte/s (0.191s)
$ tbb parallel_for memset (x6 threads):                                         20.6   GByte/s (0.194s)
$ tbb parallel_for memset (x7 threads):                                         20.7   GByte/s (0.193s)
$ tbb parallel_for memset (x8 threads):                                         19.9   GByte/s (0.201s)
$ tbb parallel_reduce memsearch (x1 threads):                                   11.7   GByte/s (0.341s)
$ tbb parallel_reduce memsearch (x2 threads):                                   22.3   GByte/s (0.179s)
$ tbb parallel_reduce memsearch (x3 threads):                                   30.6   GByte/s (0.131s)
$ tbb parallel_reduce memsearch (x4 threads):                                   35.4   GByte/s (0.113s)
$ tbb parallel_reduce memsearch (x5 threads):                                   37.7   GByte/s (0.106s)
$ tbb parallel_reduce memsearch (x6 threads):                                   39.1   GByte/s (0.102s)
$ tbb parallel_reduce memsearch (x7 threads):                                   40.3   GByte/s (0.0994s)
$ tbb parallel_reduce memsearch (x8 threads):                                   41     GByte/s (0.0976s)
$ tbb parallel_for memcpy (x1 threads):                                         3.19   GByte/s (0.628s)
$ tbb parallel_for memcpy (x2 threads):                                         6.57   GByte/s (0.304s)
$ tbb parallel_for memcpy (x3 threads):                                         10.7   GByte/s (0.188s)
$ tbb parallel_for memcpy (x4 threads):                                         12.6   GByte/s (0.159s)
$ tbb parallel_for memcpy (x5 threads):                                         12.4   GByte/s (0.161s)
$ tbb parallel_for memcpy (x6 threads):                                         11.7   GByte/s (0.171s)
$ tbb parallel_for memcpy (x7 threads):                                         11.8   GByte/s (0.169s)
$ tbb parallel_for memcpy (x8 threads):                                         11.8   GByte/s (0.169s)
$ page strided write sequential:                                                36.1   MegaAccess/s (0.277s)
$ page strided read sequential:                                                 47     MegaAccess/s (0.213s)
$ page strided write random:                                                    25.9   MegaAccess/s (0.385s)
$ page strided read random:                                                     27     MegaAccess/s (0.371s)
$ tbb parallel_for page strided write sequential (x1 threads):                  48.2   MegaAccess/s (0.207s)
$ tbb parallel_reduce page strided read sequential (x1 threads):                61.2   MegaAccess/s (0.164s)
$ tbb parallel_for page strided write sequential (x2 threads):                  73     MegaAccess/s (0.137s)
$ tbb parallel_reduce page strided read sequential (x2 threads):                112    MegaAccess/s (0.0896s)
$ tbb parallel_for page strided write sequential (x3 threads):                  74.6   MegaAccess/s (0.134s)
$ tbb parallel_reduce page strided read sequential (x3 threads):                167    MegaAccess/s (0.0598s)
$ tbb parallel_for page strided write sequential (x4 threads):                  75.9   MegaAccess/s (0.132s)
$ tbb parallel_reduce page strided read sequential (x4 threads):                176    MegaAccess/s (0.057s)
$ tbb parallel_for page strided write sequential (x5 threads):                  75.4   MegaAccess/s (0.133s)
$ tbb parallel_reduce page strided read sequential (x5 threads):                175    MegaAccess/s (0.0573s)
$ tbb parallel_for page strided write sequential (x6 threads):                  73.7   MegaAccess/s (0.136s)
$ tbb parallel_reduce page strided read sequential (x6 threads):                174    MegaAccess/s (0.0574s)
$ tbb parallel_for page strided write sequential (x7 threads):                  72.9   MegaAccess/s (0.137s)
$ tbb parallel_reduce page strided read sequential (x7 threads):                172    MegaAccess/s (0.0582s)
$ tbb parallel_for page strided write sequential (x8 threads):                  69.9   MegaAccess/s (0.143s)
$ tbb parallel_reduce page strided read sequential (x8 threads):                174    MegaAccess/s (0.0575s)
$ tbb parallel_for page strided write random (x1 threads):                      26.3   MegaAccess/s (0.38 s)
$ tbb parallel_for page strided read random (x1 threads):                       26.4   MegaAccess/s (0.379s)
$ tbb parallel_for page strided write random (x2 threads):                      52.1   MegaAccess/s (0.192s)
$ tbb parallel_for page strided read random (x2 threads):                       51.9   MegaAccess/s (0.193s)
$ tbb parallel_for page strided write random (x3 threads):                      64     MegaAccess/s (0.156s)
$ tbb parallel_for page strided read random (x3 threads):                       81.1   MegaAccess/s (0.123s)
$ tbb parallel_for page strided write random (x4 threads):                      68     MegaAccess/s (0.147s)
$ tbb parallel_for page strided read random (x4 threads):                       108    MegaAccess/s (0.0924s)
$ tbb parallel_for page strided write random (x5 threads):                      68     MegaAccess/s (0.147s)
$ tbb parallel_for page strided read random (x5 threads):                       107    MegaAccess/s (0.0934s)
$ tbb parallel_for page strided write random (x6 threads):                      67.8   MegaAccess/s (0.147s)
$ tbb parallel_for page strided read random (x6 threads):                       106    MegaAccess/s (0.094s)
$ tbb parallel_for page strided write random (x7 threads):                      67.5   MegaAccess/s (0.148s)
$ tbb parallel_for page strided read random (x7 threads):                       106    MegaAccess/s (0.0944s)
$ tbb parallel_for page strided write random (x8 threads):                      67.9   MegaAccess/s (0.147s)
$ tbb parallel_for page strided read random (x8 threads):                       106    MegaAccess/s (0.0946s)
$ std allocate 1:                                                               22.8   MegaAllocations/s (1.41 s)
$ std deallocate 1:                                                             48.8   MegaDeallocations/s (0.655s)
$ std allocate 4k:                                                              1.17   MegaAllocations/s (0.427s)
$ std deallocate 4k:                                                            3.19   MegaDeallocations/s (0.157s)
$ tbb parallel_for std allocate 1 (x1 threads):                                 22.6   MegaAllocations/s (1.41 s)
$ tbb parallel_for std deallocate 1 (x1 threads):                               48.8   MegaDeallocations/s (0.656s)
$ tbb parallel_for std allocate 1 (x2 threads):                                 36.2   MegaAllocations/s (0.885s)
$ tbb parallel_for std deallocate 1 (x2 threads):                               31.2   MegaDeallocations/s (1.03 s)
$ tbb parallel_for std allocate 1 (x3 threads):                                 12.9   MegaAllocations/s (2.48 s)
$ tbb parallel_for std deallocate 1 (x3 threads):                               23.5   MegaDeallocations/s (1.36 s)
$ tbb parallel_for std allocate 1 (x4 threads):                                 30.9   MegaAllocations/s (1.04 s)
$ tbb parallel_for std deallocate 1 (x4 threads):                               12.6   MegaDeallocations/s (2.53 s)
$ tbb parallel_for std allocate 1 (x5 threads):                                 50.8   MegaAllocations/s (0.629s)
$ tbb parallel_for std deallocate 1 (x5 threads):                               12.2   MegaDeallocations/s (2.61 s)
$ tbb parallel_for std allocate 1 (x6 threads):                                 38.7   MegaAllocations/s (0.826s)
$ tbb parallel_for std deallocate 1 (x6 threads):                               15.6   MegaDeallocations/s (2.06 s)
$ tbb parallel_for std allocate 1 (x7 threads):                                 37.8   MegaAllocations/s (0.847s)
$ tbb parallel_for std deallocate 1 (x7 threads):                               29.1   MegaDeallocations/s (1.1  s)
$ tbb parallel_for std allocate 1 (x8 threads):                                 50.6   MegaAllocations/s (0.633s)
$ tbb parallel_for std deallocate 1 (x8 threads):                               25.6   MegaDeallocations/s (1.25 s)
$ tbb parallel_for std allocate 4k (x1 threads):                                0.694  MegaAllocations/s (0.721s)
$ tbb parallel_for std deallocate 4k (x1 threads):                              3.32   MegaDeallocations/s (0.151s)
$ tbb parallel_for std allocate 4k (x2 threads):                                0.114  MegaAllocations/s (4.38 s)
$ tbb parallel_for std deallocate 4k (x2 threads):                              3.96   MegaDeallocations/s (0.126s)
$ tbb parallel_for std allocate 4k (x3 threads):                                0.119  MegaAllocations/s (4.21 s)
$ tbb parallel_for std deallocate 4k (x3 threads):                              4.34   MegaDeallocations/s (0.115s)
$ tbb parallel_for std allocate 4k (x4 threads):                                0.112  MegaAllocations/s (4.47 s)
$ tbb parallel_for std deallocate 4k (x4 threads):                              5.38   MegaDeallocations/s (0.0929s)
$ tbb parallel_for std allocate 4k (x5 threads):                                0.116  MegaAllocations/s (4.31 s)
$ tbb parallel_for std deallocate 4k (x5 threads):                              5.95   MegaDeallocations/s (0.0841s)
$ tbb parallel_for std allocate 4k (x6 threads):                                0.116  MegaAllocations/s (4.32 s)
$ tbb parallel_for std deallocate 4k (x6 threads):                              5.13   MegaDeallocations/s (0.0974s)
$ tbb parallel_for std allocate 4k (x7 threads):                                0.118  MegaAllocations/s (4.23 s)
$ tbb parallel_for std deallocate 4k (x7 threads):                              4.62   MegaDeallocations/s (0.108s)
$ tbb parallel_for std allocate 4k (x8 threads):                                0.127  MegaAllocations/s (3.94 s)
$ tbb parallel_for std deallocate 4k (x8 threads):                              5.43   MegaDeallocations/s (0.0921s)
$ tbb scalable pool allocate 1:                                                 59.4   MegaAllocations/s (0.539s)
$ tbb scalable pool deallocate 1:                                               41.9   MegaDeallocations/s (0.764s)
$ tbb scalable pool allocate 4k:                                                1.69   MegaAllocations/s (0.296s)
$ tbb scalable pool deallocate 4k:                                              0.648  MegaDeallocations/s (0.772s)
$ tbb parallel_for tbb scalable pool allocate 1 (x1 threads):                   59.2   MegaAllocations/s (0.541s)
$ tbb parallel_for tbb scalable pool deallocate 1 (x1 threads):                 41.3   MegaDeallocations/s (0.774s)
$ tbb parallel_for tbb scalable pool allocate 1 (x2 threads):                   120    MegaAllocations/s (0.266s)
$ tbb parallel_for tbb scalable pool deallocate 1 (x2 threads):                 76.6   MegaDeallocations/s (0.418s)
$ tbb parallel_for tbb scalable pool allocate 1 (x3 threads):                   174    MegaAllocations/s (0.184s)
$ tbb parallel_for tbb scalable pool deallocate 1 (x3 threads):                 95.6   MegaDeallocations/s (0.335s)
$ tbb parallel_for tbb scalable pool allocate 1 (x4 threads):                   233    MegaAllocations/s (0.137s)
$ tbb parallel_for tbb scalable pool deallocate 1 (x4 threads):                 135    MegaDeallocations/s (0.237s)
$ tbb parallel_for tbb scalable pool allocate 1 (x5 threads):                   252    MegaAllocations/s (0.127s)
$ tbb parallel_for tbb scalable pool deallocate 1 (x5 threads):                 155    MegaDeallocations/s (0.206s)
$ tbb parallel_for tbb scalable pool allocate 1 (x6 threads):                   266    MegaAllocations/s (0.12 s)
$ tbb parallel_for tbb scalable pool deallocate 1 (x6 threads):                 152    MegaDeallocations/s (0.211s)
$ tbb parallel_for tbb scalable pool allocate 1 (x7 threads):                   278    MegaAllocations/s (0.115s)
$ tbb parallel_for tbb scalable pool deallocate 1 (x7 threads):                 164    MegaDeallocations/s (0.196s)
$ tbb parallel_for tbb scalable pool allocate 1 (x8 threads):                   292    MegaAllocations/s (0.11 s)
$ tbb parallel_for tbb scalable pool deallocate 1 (x8 threads):                 167    MegaDeallocations/s (0.192s)
$ tbb parallel_for tbb scalable pool allocate 4k (x1 threads):                  1.69   MegaAllocations/s (0.296s)
$ tbb parallel_for tbb scalable pool deallocate 4k (x1 threads):                0.647  MegaDeallocations/s (0.773s)
$ tbb parallel_for tbb scalable pool allocate 4k (x2 threads):                  2.58   MegaAllocations/s (0.194s)
$ tbb parallel_for tbb scalable pool deallocate 4k (x2 threads):                0.397  MegaDeallocations/s (1.26 s)
$ tbb parallel_for tbb scalable pool allocate 4k (x3 threads):                  2.67   MegaAllocations/s (0.187s)
$ tbb parallel_for tbb scalable pool deallocate 4k (x3 threads):                0.412  MegaDeallocations/s (1.21 s)
$ tbb parallel_for tbb scalable pool allocate 4k (x4 threads):                  3.81   MegaAllocations/s (0.131s)
$ tbb parallel_for tbb scalable pool deallocate 4k (x4 threads):                0.519  MegaDeallocations/s (0.963s)
$ tbb parallel_for tbb scalable pool allocate 4k (x5 threads):                  3.74   MegaAllocations/s (0.134s)
$ tbb parallel_for tbb scalable pool deallocate 4k (x5 threads):                0.458  MegaDeallocations/s (1.09 s)
$ tbb parallel_for tbb scalable pool allocate 4k (x6 threads):                  3.83   MegaAllocations/s (0.13 s)
$ tbb parallel_for tbb scalable pool deallocate 4k (x6 threads):                0.436  MegaDeallocations/s (1.15 s)
$ tbb parallel_for tbb scalable pool allocate 4k (x7 threads):                  3.57   MegaAllocations/s (0.14 s)
$ tbb parallel_for tbb scalable pool deallocate 4k (x7 threads):                0.38   MegaDeallocations/s (1.32 s)
$ tbb parallel_for tbb scalable pool allocate 4k (x8 threads):                  3.9    MegaAllocations/s (0.128s)
$ tbb parallel_for tbb scalable pool deallocate 4k (x8 threads):                0.412  MegaDeallocations/s (1.21 s)
$ tbb scalable allocate 1:                                                      49.2   MegaAllocations/s (0.651s)
$ tbb scalable deallocate 1:                                                    41.6   MegaDeallocations/s (0.77 s)
$ tbb scalable allocate 4k:                                                     1.64   MegaAllocations/s (0.304s)
$ tbb scalable deallocate 4k:                                                   0.696  MegaDeallocations/s (0.719s)
$ tbb parallel_for tbb scalable allocate 1 (x1 threads):                        49.2   MegaAllocations/s (0.651s)
$ tbb parallel_for tbb scalable deallocate 1 (x1 threads):                      41     MegaDeallocations/s (0.781s)
$ tbb parallel_for tbb scalable allocate 1 (x2 threads):                        97     MegaAllocations/s (0.33 s)
$ tbb parallel_for tbb scalable deallocate 1 (x2 threads):                      61.8   MegaDeallocations/s (0.518s)
$ tbb parallel_for tbb scalable allocate 1 (x3 threads):                        145    MegaAllocations/s (0.221s)
$ tbb parallel_for tbb scalable deallocate 1 (x3 threads):                      80.2   MegaDeallocations/s (0.399s)
$ tbb parallel_for tbb scalable allocate 1 (x4 threads):                        194    MegaAllocations/s (0.165s)
$ tbb parallel_for tbb scalable deallocate 1 (x4 threads):                      146    MegaDeallocations/s (0.218s)
$ tbb parallel_for tbb scalable allocate 1 (x5 threads):                        209    MegaAllocations/s (0.153s)
$ tbb parallel_for tbb scalable deallocate 1 (x5 threads):                      167    MegaDeallocations/s (0.192s)
$ tbb parallel_for tbb scalable allocate 1 (x6 threads):                        219    MegaAllocations/s (0.146s)
$ tbb parallel_for tbb scalable deallocate 1 (x6 threads):                      187    MegaDeallocations/s (0.171s)
$ tbb parallel_for tbb scalable allocate 1 (x7 threads):                        235    MegaAllocations/s (0.136s)
$ tbb parallel_for tbb scalable deallocate 1 (x7 threads):                      187    MegaDeallocations/s (0.171s)
$ tbb parallel_for tbb scalable allocate 1 (x8 threads):                        248    MegaAllocations/s (0.129s)
$ tbb parallel_for tbb scalable deallocate 1 (x8 threads):                      209    MegaDeallocations/s (0.153s)
$ tbb parallel_for tbb scalable allocate 4k (x1 threads):                       1.68   MegaAllocations/s (0.298s)
$ tbb parallel_for tbb scalable deallocate 4k (x1 threads):                     0.707  MegaDeallocations/s (0.707s)
$ tbb parallel_for tbb scalable allocate 4k (x2 threads):                       2.45   MegaAllocations/s (0.204s)
$ tbb parallel_for tbb scalable deallocate 4k (x2 threads):                     0.301  MegaDeallocations/s (1.66 s)
$ tbb parallel_for tbb scalable allocate 4k (x3 threads):                       2.89   MegaAllocations/s (0.173s)
$ tbb parallel_for tbb scalable deallocate 4k (x3 threads):                     0.454  MegaDeallocations/s (1.1  s)
$ tbb parallel_for tbb scalable allocate 4k (x4 threads):                       10.6   MegaAllocations/s (0.0471s)
$ tbb parallel_for tbb scalable deallocate 4k (x4 threads):                     16.1   MegaDeallocations/s (0.031s)
$ tbb parallel_for tbb scalable allocate 4k (x5 threads):                       16.5   MegaAllocations/s (0.0304s)
$ tbb parallel_for tbb scalable deallocate 4k (x5 threads):                     3.44   MegaDeallocations/s (0.145s)
$ tbb parallel_for tbb scalable allocate 4k (x6 threads):                       8.86   MegaAllocations/s (0.0564s)
$ tbb parallel_for tbb scalable deallocate 4k (x6 threads):                     6.12   MegaDeallocations/s (0.0818s)
$ tbb parallel_for tbb scalable allocate 4k (x7 threads):                       8.84   MegaAllocations/s (0.0565s)
$ tbb parallel_for tbb scalable deallocate 4k (x7 threads):                     5.88   MegaDeallocations/s (0.085s)
$ tbb parallel_for tbb scalable allocate 4k (x8 threads):                       12.2   MegaAllocations/s (0.0408s)
$ tbb parallel_for tbb scalable deallocate 4k (x8 threads):                     8.29   MegaDeallocations/s (0.0603s)
