Running 17 test cases...
$ hailstone numbers:                                                            0.41   GigaIterations/s (0.61 s)
$ tbb parallel_reduce hailstone numbers (x1 threads):                           0.411  GigaIterations/s (0.609s)
$ tbb parallel_reduce hailstone numbers (x2 threads):                           0.82   GigaIterations/s (0.305s)
$ tbb parallel_reduce hailstone numbers (x3 threads):                           1.22   GigaIterations/s (0.204s)
$ tbb parallel_reduce hailstone numbers (x4 threads):                           1.61   GigaIterations/s (0.156s)
$ tbb parallel_reduce hailstone numbers (x5 threads):                           2.02   GigaIterations/s (0.124s)
$ tbb parallel_reduce hailstone numbers (x6 threads):                           2.39   GigaIterations/s (0.105s)
$ tbb parallel_reduce hailstone numbers (x7 threads):                           2.75   GigaIterations/s (0.0908s)
$ tbb parallel_reduce hailstone numbers (x8 threads):                           3.03   GigaIterations/s (0.0826s)
$ tbb parallel_reduce hailstone numbers (x9 threads):                           3.38   GigaIterations/s (0.0741s)
$ tbb parallel_reduce hailstone numbers (x10 threads):                          3.74   GigaIterations/s (0.0669s)
$ tbb parallel_reduce hailstone numbers (x11 threads):                          4.01   GigaIterations/s (0.0624s)
$ tbb parallel_reduce hailstone numbers (x12 threads):                          4.08   GigaIterations/s (0.0613s)
$ tbb parallel_reduce hailstone numbers (x13 threads):                          4.13   GigaIterations/s (0.0605s)
$ tbb parallel_reduce hailstone numbers (x14 threads):                          4.69   GigaIterations/s (0.0533s)
$ tbb parallel_reduce hailstone numbers (x15 threads):                          4.72   GigaIterations/s (0.053s)
$ tbb parallel_reduce hailstone numbers (x16 threads):                          5.03   GigaIterations/s (0.0497s)
$ memset:                                                                       4.74   GByte/s (0.844s)
$ memsearch:                                                                    6.68   GByte/s (0.599s)
$ memcpy:                                                                       3.27   GByte/s (0.611s)
$ tbb parallel_for memset (x1 threads):                                         4.68   GByte/s (0.855s)
$ tbb parallel_for memset (x2 threads):                                         9.27   GByte/s (0.432s)
$ tbb parallel_for memset (x3 threads):                                         10.1   GByte/s (0.395s)
$ tbb parallel_for memset (x4 threads):                                         11     GByte/s (0.362s)
$ tbb parallel_for memset (x5 threads):                                         11.9   GByte/s (0.335s)
$ tbb parallel_for memset (x6 threads):                                         12.9   GByte/s (0.311s)
$ tbb parallel_for memset (x7 threads):                                         13.7   GByte/s (0.292s)
$ tbb parallel_for memset (x8 threads):                                         14.6   GByte/s (0.273s)
$ tbb parallel_for memset (x9 threads):                                         14.3   GByte/s (0.28 s)
$ tbb parallel_for memset (x10 threads):                                        14     GByte/s (0.286s)
$ tbb parallel_for memset (x11 threads):                                        14.8   GByte/s (0.27 s)
$ tbb parallel_for memset (x12 threads):                                        14.8   GByte/s (0.271s)
$ tbb parallel_for memset (x13 threads):                                        14.9   GByte/s (0.268s)
$ tbb parallel_for memset (x14 threads):                                        14.7   GByte/s (0.271s)
$ tbb parallel_for memset (x15 threads):                                        14.8   GByte/s (0.27 s)
$ tbb parallel_for memset (x16 threads):                                        14.1   GByte/s (0.284s)
$ tbb parallel_reduce memsearch (x1 threads):                                   6.68   GByte/s (0.599s)
$ tbb parallel_reduce memsearch (x2 threads):                                   12.6   GByte/s (0.318s)
$ tbb parallel_reduce memsearch (x3 threads):                                   15.1   GByte/s (0.265s)
$ tbb parallel_reduce memsearch (x4 threads):                                   17.4   GByte/s (0.23 s)
$ tbb parallel_reduce memsearch (x5 threads):                                   19.6   GByte/s (0.204s)
$ tbb parallel_reduce memsearch (x6 threads):                                   21.7   GByte/s (0.184s)
$ tbb parallel_reduce memsearch (x7 threads):                                   22.5   GByte/s (0.177s)
$ tbb parallel_reduce memsearch (x8 threads):                                   22.8   GByte/s (0.175s)
$ tbb parallel_reduce memsearch (x9 threads):                                   23.9   GByte/s (0.167s)
$ tbb parallel_reduce memsearch (x10 threads):                                  23.5   GByte/s (0.17 s)
$ tbb parallel_reduce memsearch (x11 threads):                                  24     GByte/s (0.167s)
$ tbb parallel_reduce memsearch (x12 threads):                                  24.1   GByte/s (0.166s)
$ tbb parallel_reduce memsearch (x13 threads):                                  24     GByte/s (0.167s)
$ tbb parallel_reduce memsearch (x14 threads):                                  24.2   GByte/s (0.165s)
$ tbb parallel_reduce memsearch (x15 threads):                                  24.2   GByte/s (0.165s)
$ tbb parallel_reduce memsearch (x16 threads):                                  24.3   GByte/s (0.165s)
$ tbb parallel_for memcpy (x1 threads):                                         3.07   GByte/s (0.651s)
$ tbb parallel_for memcpy (x2 threads):                                         6.1    GByte/s (0.328s)
$ tbb parallel_for memcpy (x3 threads):                                         7.86   GByte/s (0.254s)
$ tbb parallel_for memcpy (x4 threads):                                         9.25   GByte/s (0.216s)
$ tbb parallel_for memcpy (x5 threads):                                         9.92   GByte/s (0.202s)
$ tbb parallel_for memcpy (x6 threads):                                         9.98   GByte/s (0.2  s)
$ tbb parallel_for memcpy (x7 threads):                                         10.4   GByte/s (0.191s)
$ tbb parallel_for memcpy (x8 threads):                                         10.3   GByte/s (0.193s)
$ tbb parallel_for memcpy (x9 threads):                                         10.3   GByte/s (0.193s)
$ tbb parallel_for memcpy (x10 threads):                                        10.2   GByte/s (0.197s)
$ tbb parallel_for memcpy (x11 threads):                                        9.93   GByte/s (0.201s)
$ tbb parallel_for memcpy (x12 threads):                                        9.75   GByte/s (0.205s)
$ tbb parallel_for memcpy (x13 threads):                                        9.78   GByte/s (0.205s)
$ tbb parallel_for memcpy (x14 threads):                                        9.69   GByte/s (0.206s)
$ tbb parallel_for memcpy (x15 threads):                                        9.83   GByte/s (0.204s)
$ tbb parallel_for memcpy (x16 threads):                                        9.77   GByte/s (0.205s)
$ page strided write sequential:                                                48.5   MegaAccess/s (0.206s)
$ page strided read sequential:                                                 53.3   MegaAccess/s (0.187s)
$ page strided write random:                                                    18.8   MegaAccess/s (0.531s)
$ page strided read random:                                                     19.7   MegaAccess/s (0.509s)
$ tbb parallel_for page strided write sequential (x1 threads):                  56.9   MegaAccess/s (0.176s)
$ tbb parallel_reduce page strided read sequential (x1 threads):                52.2   MegaAccess/s (0.191s)
$ tbb parallel_for page strided write sequential (x2 threads):                  108    MegaAccess/s (0.093s)
$ tbb parallel_reduce page strided read sequential (x2 threads):                116    MegaAccess/s (0.0866s)
$ tbb parallel_for page strided write sequential (x3 threads):                  130    MegaAccess/s (0.0768s)
$ tbb parallel_reduce page strided read sequential (x3 threads):                163    MegaAccess/s (0.0613s)
$ tbb parallel_for page strided write sequential (x4 threads):                  131    MegaAccess/s (0.0765s)
$ tbb parallel_reduce page strided read sequential (x4 threads):                216    MegaAccess/s (0.0463s)
$ tbb parallel_for page strided write sequential (x5 threads):                  130    MegaAccess/s (0.0769s)
$ tbb parallel_reduce page strided read sequential (x5 threads):                256    MegaAccess/s (0.039s)
$ tbb parallel_for page strided write sequential (x6 threads):                  130    MegaAccess/s (0.0769s)
$ tbb parallel_reduce page strided read sequential (x6 threads):                274    MegaAccess/s (0.0365s)
$ tbb parallel_for page strided write sequential (x7 threads):                  129    MegaAccess/s (0.0777s)
$ tbb parallel_reduce page strided read sequential (x7 threads):                269    MegaAccess/s (0.0372s)
$ tbb parallel_for page strided write sequential (x8 threads):                  127    MegaAccess/s (0.0786s)
$ tbb parallel_reduce page strided read sequential (x8 threads):                266    MegaAccess/s (0.0376s)
$ tbb parallel_for page strided write sequential (x9 threads):                  127    MegaAccess/s (0.0789s)
$ tbb parallel_reduce page strided read sequential (x9 threads):                276    MegaAccess/s (0.0363s)
$ tbb parallel_for page strided write sequential (x10 threads):                 125    MegaAccess/s (0.0798s)
$ tbb parallel_reduce page strided read sequential (x10 threads):               273    MegaAccess/s (0.0366s)
$ tbb parallel_for page strided write sequential (x11 threads):                 128    MegaAccess/s (0.0784s)
$ tbb parallel_reduce page strided read sequential (x11 threads):               278    MegaAccess/s (0.036s)
$ tbb parallel_for page strided write sequential (x12 threads):                 127    MegaAccess/s (0.0788s)
$ tbb parallel_reduce page strided read sequential (x12 threads):               276    MegaAccess/s (0.0362s)
$ tbb parallel_for page strided write sequential (x13 threads):                 127    MegaAccess/s (0.079s)
$ tbb parallel_reduce page strided read sequential (x13 threads):               273    MegaAccess/s (0.0366s)
$ tbb parallel_for page strided write sequential (x14 threads):                 126    MegaAccess/s (0.0793s)
$ tbb parallel_reduce page strided read sequential (x14 threads):               275    MegaAccess/s (0.0364s)
$ tbb parallel_for page strided write sequential (x15 threads):                 126    MegaAccess/s (0.0792s)
$ tbb parallel_reduce page strided read sequential (x15 threads):               269    MegaAccess/s (0.0372s)
$ tbb parallel_for page strided write sequential (x16 threads):                 126    MegaAccess/s (0.0795s)
$ tbb parallel_reduce page strided read sequential (x16 threads):               268    MegaAccess/s (0.0372s)
$ tbb parallel_for page strided write random (x1 threads):                      19.6   MegaAccess/s (0.509s)
$ tbb parallel_for page strided read random (x1 threads):                       20.1   MegaAccess/s (0.498s)
$ tbb parallel_for page strided write random (x2 threads):                      39.2   MegaAccess/s (0.255s)
$ tbb parallel_for page strided read random (x2 threads):                       38.8   MegaAccess/s (0.258s)
$ tbb parallel_for page strided write random (x3 threads):                      58.1   MegaAccess/s (0.172s)
$ tbb parallel_for page strided read random (x3 threads):                       59.2   MegaAccess/s (0.169s)
$ tbb parallel_for page strided write random (x4 threads):                      77     MegaAccess/s (0.13 s)
$ tbb parallel_for page strided read random (x4 threads):                       77.9   MegaAccess/s (0.128s)
$ tbb parallel_for page strided write random (x5 threads):                      90.1   MegaAccess/s (0.111s)
$ tbb parallel_for page strided read random (x5 threads):                       91.8   MegaAccess/s (0.109s)
$ tbb parallel_for page strided write random (x6 threads):                      103    MegaAccess/s (0.0971s)
$ tbb parallel_for page strided read random (x6 threads):                       116    MegaAccess/s (0.0864s)
$ tbb parallel_for page strided write random (x7 threads):                      116    MegaAccess/s (0.086s)
$ tbb parallel_for page strided read random (x7 threads):                       134    MegaAccess/s (0.0747s)
$ tbb parallel_for page strided write random (x8 threads):                      120    MegaAccess/s (0.0831s)
$ tbb parallel_for page strided read random (x8 threads):                       152    MegaAccess/s (0.0657s)
$ tbb parallel_for page strided write random (x9 threads):                      120    MegaAccess/s (0.0834s)
$ tbb parallel_for page strided read random (x9 threads):                       151    MegaAccess/s (0.0662s)
$ tbb parallel_for page strided write random (x10 threads):                     120    MegaAccess/s (0.0832s)
$ tbb parallel_for page strided read random (x10 threads):                      149    MegaAccess/s (0.067s)
$ tbb parallel_for page strided write random (x11 threads):                     120    MegaAccess/s (0.0832s)
$ tbb parallel_for page strided read random (x11 threads):                      148    MegaAccess/s (0.0677s)
$ tbb parallel_for page strided write random (x12 threads):                     118    MegaAccess/s (0.0849s)
$ tbb parallel_for page strided read random (x12 threads):                      142    MegaAccess/s (0.0706s)
$ tbb parallel_for page strided write random (x13 threads):                     120    MegaAccess/s (0.0834s)
$ tbb parallel_for page strided read random (x13 threads):                      146    MegaAccess/s (0.0685s)
$ tbb parallel_for page strided write random (x14 threads):                     120    MegaAccess/s (0.0836s)
$ tbb parallel_for page strided read random (x14 threads):                      145    MegaAccess/s (0.0689s)
$ tbb parallel_for page strided write random (x15 threads):                     112    MegaAccess/s (0.0895s)
$ tbb parallel_for page strided read random (x15 threads):                      121    MegaAccess/s (0.0828s)
$ tbb parallel_for page strided write random (x16 threads):                     103    MegaAccess/s (0.0967s)
$ tbb parallel_for page strided read random (x16 threads):                      120    MegaAccess/s (0.0832s)
$ std allocate 1:                                                               17.3   MegaAllocations/s (1.85 s)
$ std deallocate 1:                                                             33.7   MegaDeallocations/s (0.95 s)
$ std allocate 4k:                                                              1.04   MegaAllocations/s (0.479s)
$ std deallocate 4k:                                                            2.4    MegaDeallocations/s (0.209s)
$ tbb parallel_for std allocate 1 (x1 threads):                                 17     MegaAllocations/s (1.88 s)
$ tbb parallel_for std deallocate 1 (x1 threads):                               33.2   MegaDeallocations/s (0.965s)
$ tbb parallel_for std allocate 1 (x2 threads):                                 21.1   MegaAllocations/s (1.52 s)
$ tbb parallel_for std deallocate 1 (x2 threads):                               10.4   MegaDeallocations/s (3.08 s)
$ tbb parallel_for std allocate 1 (x3 threads):                                 3.94   MegaAllocations/s (8.12 s)
$ tbb parallel_for std deallocate 1 (x3 threads):                               15     MegaDeallocations/s (2.13 s)
$ tbb parallel_for std allocate 1 (x4 threads):                                 6.12   MegaAllocations/s (5.23 s)
$ tbb parallel_for std deallocate 1 (x4 threads):                               9.92   MegaDeallocations/s (3.23 s)
$ tbb parallel_for std allocate 1 (x5 threads):                                 10.6   MegaAllocations/s (3.03 s)
$ tbb parallel_for std deallocate 1 (x5 threads):                               12.3   MegaDeallocations/s (2.6  s)
$ tbb parallel_for std allocate 1 (x6 threads):                                 25     MegaAllocations/s (1.28 s)
$ tbb parallel_for std deallocate 1 (x6 threads):                               6.67   MegaDeallocations/s (4.8  s)
$ tbb parallel_for std allocate 1 (x7 threads):                                 23.2   MegaAllocations/s (1.38 s)
$ tbb parallel_for std deallocate 1 (x7 threads):                               7.21   MegaDeallocations/s (4.44 s)
$ tbb parallel_for std allocate 1 (x8 threads):                                 25.1   MegaAllocations/s (1.27 s)
$ tbb parallel_for std deallocate 1 (x8 threads):                               7.73   MegaDeallocations/s (4.14 s)
$ tbb parallel_for std allocate 1 (x9 threads):                                 25     MegaAllocations/s (1.28 s)
$ tbb parallel_for std deallocate 1 (x9 threads):                               8.44   MegaDeallocations/s (3.79 s)
$ tbb parallel_for std allocate 1 (x10 threads):                                28.7   MegaAllocations/s (1.12 s)
$ tbb parallel_for std deallocate 1 (x10 threads):                              11.1   MegaDeallocations/s (2.88 s)
$ tbb parallel_for std allocate 1 (x11 threads):                                28.1   MegaAllocations/s (1.14 s)
$ tbb parallel_for std deallocate 1 (x11 threads):                              17.1   MegaDeallocations/s (1.87 s)
$ tbb parallel_for std allocate 1 (x12 threads):                                34.6   MegaAllocations/s (0.924s)
$ tbb parallel_for std deallocate 1 (x12 threads):                              18.5   MegaDeallocations/s (1.73 s)
$ tbb parallel_for std allocate 1 (x13 threads):                                36.1   MegaAllocations/s (0.886s)
$ tbb parallel_for std deallocate 1 (x13 threads):                              15.5   MegaDeallocations/s (2.07 s)
$ tbb parallel_for std allocate 1 (x14 threads):                                46.6   MegaAllocations/s (0.687s)
$ tbb parallel_for std deallocate 1 (x14 threads):                              14.6   MegaDeallocations/s (2.19 s)
$ tbb parallel_for std allocate 1 (x15 threads):                                30.7   MegaAllocations/s (1.04 s)
$ tbb parallel_for std deallocate 1 (x15 threads):                              16.2   MegaDeallocations/s (1.97 s)
$ tbb parallel_for std allocate 1 (x16 threads):                                44.1   MegaAllocations/s (0.726s)
$ tbb parallel_for std deallocate 1 (x16 threads):                              21     MegaDeallocations/s (1.52 s)
$ tbb parallel_for std allocate 4k (x1 threads):                                0.617  MegaAllocations/s (0.811s)
$ tbb parallel_for std deallocate 4k (x1 threads):                              2.55   MegaDeallocations/s (0.196s)
$ tbb parallel_for std allocate 4k (x2 threads):                                0.149  MegaAllocations/s (3.35 s)
$ tbb parallel_for std deallocate 4k (x2 threads):                              2.25   MegaDeallocations/s (0.222s)
$ tbb parallel_for std allocate 4k (x3 threads):                                0.0415 MegaAllocations/s (12   s)
$ tbb parallel_for std deallocate 4k (x3 threads):                              3.49   MegaDeallocations/s (0.143s)
$ tbb parallel_for std allocate 4k (x4 threads):                                0.035  MegaAllocations/s (14.3 s)
$ tbb parallel_for std deallocate 4k (x4 threads):                              4.39   MegaDeallocations/s (0.114s)
$ tbb parallel_for std allocate 4k (x5 threads):                                0.0415 MegaAllocations/s (12   s)
$ tbb parallel_for std deallocate 4k (x5 threads):                              3.76   MegaDeallocations/s (0.133s)
$ tbb parallel_for std allocate 4k (x6 threads):                                0.0375 MegaAllocations/s (13.3 s)
$ tbb parallel_for std deallocate 4k (x6 threads):                              4.47   MegaDeallocations/s (0.112s)
$ tbb parallel_for std allocate 4k (x7 threads):                                0.0368 MegaAllocations/s (13.6 s)
$ tbb parallel_for std deallocate 4k (x7 threads):                              2.47   MegaDeallocations/s (0.202s)
$ tbb parallel_for std allocate 4k (x8 threads):                                0.0402 MegaAllocations/s (12.4 s)
$ tbb parallel_for std deallocate 4k (x8 threads):                              2.38   MegaDeallocations/s (0.21 s)
$ tbb parallel_for std allocate 4k (x9 threads):                                0.0451 MegaAllocations/s (11.1 s)
$ tbb parallel_for std deallocate 4k (x9 threads):                              2.46   MegaDeallocations/s (0.203s)
$ tbb parallel_for std allocate 4k (x10 threads):                               0.0446 MegaAllocations/s (11.2 s)
$ tbb parallel_for std deallocate 4k (x10 threads):                             3.37   MegaDeallocations/s (0.148s)
$ tbb parallel_for std allocate 4k (x11 threads):                               0.0502 MegaAllocations/s (9.96 s)
$ tbb parallel_for std deallocate 4k (x11 threads):                             2.69   MegaDeallocations/s (0.186s)
$ tbb parallel_for std allocate 4k (x12 threads):                               0.0622 MegaAllocations/s (8.04 s)
$ tbb parallel_for std deallocate 4k (x12 threads):                             2.79   MegaDeallocations/s (0.179s)
$ tbb parallel_for std allocate 4k (x13 threads):                               0.0986 MegaAllocations/s (5.07 s)
$ tbb parallel_for std deallocate 4k (x13 threads):                             2.38   MegaDeallocations/s (0.21 s)
$ tbb parallel_for std allocate 4k (x14 threads):                               0.0933 MegaAllocations/s (5.36 s)
$ tbb parallel_for std deallocate 4k (x14 threads):                             2.85   MegaDeallocations/s (0.176s)
$ tbb parallel_for std allocate 4k (x15 threads):                               0.0861 MegaAllocations/s (5.81 s)
$ tbb parallel_for std deallocate 4k (x15 threads):                             2.22   MegaDeallocations/s (0.225s)
$ tbb parallel_for std allocate 4k (x16 threads):                               0.0831 MegaAllocations/s (6.01 s)
$ tbb parallel_for std deallocate 4k (x16 threads):                             2.17   MegaDeallocations/s (0.231s)
$ tbb scalable pool allocate 1:                                                 43.8   MegaAllocations/s (0.73 s)
$ tbb scalable pool deallocate 1:                                               32.1   MegaDeallocations/s (0.998s)
$ tbb scalable pool allocate 4k:                                                1.5    MegaAllocations/s (0.334s)
$ tbb scalable pool deallocate 4k:                                              0.531  MegaDeallocations/s (0.942s)
$ tbb parallel_for tbb scalable pool allocate 1 (x1 threads):                   41.8   MegaAllocations/s (0.765s)
$ tbb parallel_for tbb scalable pool deallocate 1 (x1 threads):                 31.7   MegaDeallocations/s (1.01 s)
$ tbb parallel_for tbb scalable pool allocate 1 (x2 threads):                   84     MegaAllocations/s (0.381s)
$ tbb parallel_for tbb scalable pool deallocate 1 (x2 threads):                 49     MegaDeallocations/s (0.653s)
$ tbb parallel_for tbb scalable pool allocate 1 (x3 threads):                   125    MegaAllocations/s (0.257s)
$ tbb parallel_for tbb scalable pool deallocate 1 (x3 threads):                 60.5   MegaDeallocations/s (0.529s)
$ tbb parallel_for tbb scalable pool allocate 1 (x4 threads):                   168    MegaAllocations/s (0.19 s)
$ tbb parallel_for tbb scalable pool deallocate 1 (x4 threads):                 85.7   MegaDeallocations/s (0.374s)
$ tbb parallel_for tbb scalable pool allocate 1 (x5 threads):                   211    MegaAllocations/s (0.151s)
$ tbb parallel_for tbb scalable pool deallocate 1 (x5 threads):                 100    MegaDeallocations/s (0.32 s)
$ tbb parallel_for tbb scalable pool allocate 1 (x6 threads):                   215    MegaAllocations/s (0.149s)
$ tbb parallel_for tbb scalable pool deallocate 1 (x6 threads):                 105    MegaDeallocations/s (0.305s)
$ tbb parallel_for tbb scalable pool allocate 1 (x7 threads):                   293    MegaAllocations/s (0.109s)
$ tbb parallel_for tbb scalable pool deallocate 1 (x7 threads):                 121    MegaDeallocations/s (0.265s)
$ tbb parallel_for tbb scalable pool allocate 1 (x8 threads):                   297    MegaAllocations/s (0.108s)
$ tbb parallel_for tbb scalable pool deallocate 1 (x8 threads):                 132    MegaDeallocations/s (0.243s)
$ tbb parallel_for tbb scalable pool allocate 1 (x9 threads):                   334    MegaAllocations/s (0.0957s)
$ tbb parallel_for tbb scalable pool deallocate 1 (x9 threads):                 139    MegaDeallocations/s (0.23 s)
$ tbb parallel_for tbb scalable pool allocate 1 (x10 threads):                  335    MegaAllocations/s (0.0954s)
$ tbb parallel_for tbb scalable pool deallocate 1 (x10 threads):                129    MegaDeallocations/s (0.248s)
$ tbb parallel_for tbb scalable pool allocate 1 (x11 threads):                  335    MegaAllocations/s (0.0955s)
$ tbb parallel_for tbb scalable pool deallocate 1 (x11 threads):                120    MegaDeallocations/s (0.266s)
$ tbb parallel_for tbb scalable pool allocate 1 (x12 threads):                  338    MegaAllocations/s (0.0946s)
$ tbb parallel_for tbb scalable pool deallocate 1 (x12 threads):                89.2   MegaDeallocations/s (0.359s)
$ tbb parallel_for tbb scalable pool allocate 1 (x13 threads):                  344    MegaAllocations/s (0.0931s)
$ tbb parallel_for tbb scalable pool deallocate 1 (x13 threads):                117    MegaDeallocations/s (0.273s)
$ tbb parallel_for tbb scalable pool allocate 1 (x14 threads):                  351    MegaAllocations/s (0.0913s)
$ tbb parallel_for tbb scalable pool deallocate 1 (x14 threads):                111    MegaDeallocations/s (0.289s)
$ tbb parallel_for tbb scalable pool allocate 1 (x15 threads):                  352    MegaAllocations/s (0.091s)
$ tbb parallel_for tbb scalable pool deallocate 1 (x15 threads):                104    MegaDeallocations/s (0.308s)
$ tbb parallel_for tbb scalable pool allocate 1 (x16 threads):                  344    MegaAllocations/s (0.093s)
$ tbb parallel_for tbb scalable pool deallocate 1 (x16 threads):                123    MegaDeallocations/s (0.261s)
$ tbb parallel_for tbb scalable pool allocate 4k (x1 threads):                  1.44   MegaAllocations/s (0.348s)
$ tbb parallel_for tbb scalable pool deallocate 4k (x1 threads):                0.523  MegaDeallocations/s (0.956s)
$ tbb parallel_for tbb scalable pool allocate 4k (x2 threads):                  1.49   MegaAllocations/s (0.336s)
$ tbb parallel_for tbb scalable pool deallocate 4k (x2 threads):                0.166  MegaDeallocations/s (3    s)
$ tbb parallel_for tbb scalable pool allocate 4k (x3 threads):                  1.38   MegaAllocations/s (0.363s)
$ tbb parallel_for tbb scalable pool deallocate 4k (x3 threads):                0.166  MegaDeallocations/s (3.01 s)
$ tbb parallel_for tbb scalable pool allocate 4k (x4 threads):                  1.66   MegaAllocations/s (0.301s)
$ tbb parallel_for tbb scalable pool deallocate 4k (x4 threads):                0.168  MegaDeallocations/s (2.97 s)
$ tbb parallel_for tbb scalable pool allocate 4k (x5 threads):                  1.62   MegaAllocations/s (0.309s)
$ tbb parallel_for tbb scalable pool deallocate 4k (x5 threads):                0.123  MegaDeallocations/s (4.07 s)
$ tbb parallel_for tbb scalable pool allocate 4k (x6 threads):                  1.52   MegaAllocations/s (0.33 s)
$ tbb parallel_for tbb scalable pool deallocate 4k (x6 threads):                0.167  MegaDeallocations/s (2.99 s)
$ tbb parallel_for tbb scalable pool allocate 4k (x7 threads):                  1.57   MegaAllocations/s (0.319s)
$ tbb parallel_for tbb scalable pool deallocate 4k (x7 threads):                0.16   MegaDeallocations/s (3.13 s)
$ tbb parallel_for tbb scalable pool allocate 4k (x8 threads):                  1.04   MegaAllocations/s (0.48 s)
$ tbb parallel_for tbb scalable pool deallocate 4k (x8 threads):                0.123  MegaDeallocations/s (4.07 s)
$ tbb parallel_for tbb scalable pool allocate 4k (x9 threads):                  0.51   MegaAllocations/s (0.979s)
$ tbb parallel_for tbb scalable pool deallocate 4k (x9 threads):                0.123  MegaDeallocations/s (4.08 s)
$ tbb parallel_for tbb scalable pool allocate 4k (x10 threads):                 1.34   MegaAllocations/s (0.374s)
$ tbb parallel_for tbb scalable pool deallocate 4k (x10 threads):               0.126  MegaDeallocations/s (3.98 s)
$ tbb parallel_for tbb scalable pool allocate 4k (x11 threads):                 1.33   MegaAllocations/s (0.376s)
$ tbb parallel_for tbb scalable pool deallocate 4k (x11 threads):               0.12   MegaDeallocations/s (4.17 s)
$ tbb parallel_for tbb scalable pool allocate 4k (x12 threads):                 1.34   MegaAllocations/s (0.372s)
$ tbb parallel_for tbb scalable pool deallocate 4k (x12 threads):               0.129  MegaDeallocations/s (3.89 s)
$ tbb parallel_for tbb scalable pool allocate 4k (x13 threads):                 1.32   MegaAllocations/s (0.378s)
$ tbb parallel_for tbb scalable pool deallocate 4k (x13 threads):               0.131  MegaDeallocations/s (3.83 s)
$ tbb parallel_for tbb scalable pool allocate 4k (x14 threads):                 0.836  MegaAllocations/s (0.598s)
$ tbb parallel_for tbb scalable pool deallocate 4k (x14 threads):               0.127  MegaDeallocations/s (3.92 s)
$ tbb parallel_for tbb scalable pool allocate 4k (x15 threads):                 1.31   MegaAllocations/s (0.383s)
$ tbb parallel_for tbb scalable pool deallocate 4k (x15 threads):               0.0814 MegaDeallocations/s (6.14 s)
$ tbb parallel_for tbb scalable pool allocate 4k (x16 threads):                 0.804  MegaAllocations/s (0.622s)
$ tbb parallel_for tbb scalable pool deallocate 4k (x16 threads):               0.14   MegaDeallocations/s (3.58 s)
$ tbb scalable allocate 1:                                                      37.2   MegaAllocations/s (0.86 s)
$ tbb scalable deallocate 1:                                                    31.4   MegaDeallocations/s (1.02 s)
$ tbb scalable allocate 4k:                                                     1.45   MegaAllocations/s (0.344s)
$ tbb scalable deallocate 4k:                                                   0.531  MegaDeallocations/s (0.941s)
$ tbb parallel_for tbb scalable allocate 1 (x1 threads):                        35.6   MegaAllocations/s (0.899s)
$ tbb parallel_for tbb scalable deallocate 1 (x1 threads):                      29.5   MegaDeallocations/s (1.08 s)
$ tbb parallel_for tbb scalable allocate 1 (x2 threads):                        69.4   MegaAllocations/s (0.461s)
$ tbb parallel_for tbb scalable deallocate 1 (x2 threads):                      35.4   MegaDeallocations/s (0.903s)
$ tbb parallel_for tbb scalable allocate 1 (x3 threads):                        103    MegaAllocations/s (0.31 s)
$ tbb parallel_for tbb scalable deallocate 1 (x3 threads):                      46.6   MegaDeallocations/s (0.687s)
$ tbb parallel_for tbb scalable allocate 1 (x4 threads):                        140    MegaAllocations/s (0.229s)
$ tbb parallel_for tbb scalable deallocate 1 (x4 threads):                      122    MegaDeallocations/s (0.263s)
$ tbb parallel_for tbb scalable allocate 1 (x5 threads):                        172    MegaAllocations/s (0.186s)
$ tbb parallel_for tbb scalable deallocate 1 (x5 threads):                      125    MegaDeallocations/s (0.257s)
$ tbb parallel_for tbb scalable allocate 1 (x6 threads):                        202    MegaAllocations/s (0.158s)
$ tbb parallel_for tbb scalable deallocate 1 (x6 threads):                      168    MegaDeallocations/s (0.19 s)
$ tbb parallel_for tbb scalable allocate 1 (x7 threads):                        198    MegaAllocations/s (0.162s)
$ tbb parallel_for tbb scalable deallocate 1 (x7 threads):                      163    MegaDeallocations/s (0.196s)
$ tbb parallel_for tbb scalable allocate 1 (x8 threads):                        264    MegaAllocations/s (0.121s)
$ tbb parallel_for tbb scalable deallocate 1 (x8 threads):                      226    MegaDeallocations/s (0.141s)
$ tbb parallel_for tbb scalable allocate 1 (x9 threads):                        233    MegaAllocations/s (0.137s)
$ tbb parallel_for tbb scalable deallocate 1 (x9 threads):                      239    MegaDeallocations/s (0.134s)
$ tbb parallel_for tbb scalable allocate 1 (x10 threads):                       260    MegaAllocations/s (0.123s)
$ tbb parallel_for tbb scalable deallocate 1 (x10 threads):                     227    MegaDeallocations/s (0.141s)
$ tbb parallel_for tbb scalable allocate 1 (x11 threads):                       265    MegaAllocations/s (0.121s)
$ tbb parallel_for tbb scalable deallocate 1 (x11 threads):                     218    MegaDeallocations/s (0.146s)
$ tbb parallel_for tbb scalable allocate 1 (x12 threads):                       250    MegaAllocations/s (0.128s)
$ tbb parallel_for tbb scalable deallocate 1 (x12 threads):                     243    MegaDeallocations/s (0.132s)
$ tbb parallel_for tbb scalable allocate 1 (x13 threads):                       269    MegaAllocations/s (0.119s)
$ tbb parallel_for tbb scalable deallocate 1 (x13 threads):                     246    MegaDeallocations/s (0.13 s)
$ tbb parallel_for tbb scalable allocate 1 (x14 threads):                       271    MegaAllocations/s (0.118s)
$ tbb parallel_for tbb scalable deallocate 1 (x14 threads):                     214    MegaDeallocations/s (0.15 s)
$ tbb parallel_for tbb scalable allocate 1 (x15 threads):                       276    MegaAllocations/s (0.116s)
$ tbb parallel_for tbb scalable deallocate 1 (x15 threads):                     185    MegaDeallocations/s (0.173s)
$ tbb parallel_for tbb scalable allocate 1 (x16 threads):                       279    MegaAllocations/s (0.115s)
$ tbb parallel_for tbb scalable deallocate 1 (x16 threads):                     247    MegaDeallocations/s (0.129s)
$ tbb parallel_for tbb scalable allocate 4k (x1 threads):                       1.46   MegaAllocations/s (0.343s)
$ tbb parallel_for tbb scalable deallocate 4k (x1 threads):                     0.527  MegaDeallocations/s (0.948s)
$ tbb parallel_for tbb scalable allocate 4k (x2 threads):                       1.35   MegaAllocations/s (0.371s)
$ tbb parallel_for tbb scalable deallocate 4k (x2 threads):                     0.117  MegaDeallocations/s (4.28 s)
$ tbb parallel_for tbb scalable allocate 4k (x3 threads):                       0.923  MegaAllocations/s (0.542s)
$ tbb parallel_for tbb scalable deallocate 4k (x3 threads):                     0.167  MegaDeallocations/s (2.99 s)
$ tbb parallel_for tbb scalable allocate 4k (x4 threads):                       3.91   MegaAllocations/s (0.128s)
$ tbb parallel_for tbb scalable deallocate 4k (x4 threads):                     0.495  MegaDeallocations/s (1.01 s)
$ tbb parallel_for tbb scalable allocate 4k (x5 threads):                       5.34   MegaAllocations/s (0.0936s)
$ tbb parallel_for tbb scalable deallocate 4k (x5 threads):                     2.02   MegaDeallocations/s (0.248s)
$ tbb parallel_for tbb scalable allocate 4k (x6 threads):                       4.53   MegaAllocations/s (0.11 s)
$ tbb parallel_for tbb scalable deallocate 4k (x6 threads):                     2.29   MegaDeallocations/s (0.219s)
$ tbb parallel_for tbb scalable allocate 4k (x7 threads):                       7.18   MegaAllocations/s (0.0697s)
$ tbb parallel_for tbb scalable deallocate 4k (x7 threads):                     1.69   MegaDeallocations/s (0.296s)
$ tbb parallel_for tbb scalable allocate 4k (x8 threads):                       5.27   MegaAllocations/s (0.0949s)
$ tbb parallel_for tbb scalable deallocate 4k (x8 threads):                     26.6   MegaDeallocations/s (0.0188s)
$ tbb parallel_for tbb scalable allocate 4k (x9 threads):                       19.5   MegaAllocations/s (0.0257s)
$ tbb parallel_for tbb scalable deallocate 4k (x9 threads):                     2.03   MegaDeallocations/s (0.247s)
$ tbb parallel_for tbb scalable allocate 4k (x10 threads):                      4.32   MegaAllocations/s (0.116s)
$ tbb parallel_for tbb scalable deallocate 4k (x10 threads):                    30.6   MegaDeallocations/s (0.0164s)
$ tbb parallel_for tbb scalable allocate 4k (x11 threads):                      21.5   MegaAllocations/s (0.0233s)
$ tbb parallel_for tbb scalable deallocate 4k (x11 threads):                    2.35   MegaDeallocations/s (0.213s)
$ tbb parallel_for tbb scalable allocate 4k (x12 threads):                      4.09   MegaAllocations/s (0.122s)
$ tbb parallel_for tbb scalable deallocate 4k (x12 threads):                    35.6   MegaDeallocations/s (0.014s)
$ tbb parallel_for tbb scalable allocate 4k (x13 threads):                      30.2   MegaAllocations/s (0.0166s)
$ tbb parallel_for tbb scalable deallocate 4k (x13 threads):                    2.64   MegaDeallocations/s (0.19 s)
$ tbb parallel_for tbb scalable allocate 4k (x14 threads):                      4.38   MegaAllocations/s (0.114s)
$ tbb parallel_for tbb scalable deallocate 4k (x14 threads):                    34.1   MegaDeallocations/s (0.0147s)
$ tbb parallel_for tbb scalable allocate 4k (x15 threads):                      5.31   MegaAllocations/s (0.0941s)
$ tbb parallel_for tbb scalable deallocate 4k (x15 threads):                    4.02   MegaDeallocations/s (0.125s)
$ tbb parallel_for tbb scalable allocate 4k (x16 threads):                      5.36   MegaAllocations/s (0.0933s)
$ tbb parallel_for tbb scalable deallocate 4k (x16 threads):                    3.39   MegaDeallocations/s (0.147s)
